,,Data
,,iiamscarface1
,,0x4dF65b42BB1370d1f5Aa0c7b955962EC8Df4Ca55
,,0xF9d6d248561F90d0d63419fFEebdcB34D0e335B3
,,0x7370632cF4a01e7bDD7518E0500d7082f044c2E7
,,0x9A58e395707a739B9691EAa2437b0f76D5264a42
,,0xFe9a19B9d4901bC016Aa97E0A556016f2b5f9296
,,0x70b6848Dbb00Ad2Eb9C44b48f035968477efc709
,,0xe8C22d64B593B367E82914e12a1D833f29722f75
,,0x26CC97381f572ac88d3B26482EB3bb72f213377f
,,0x61F27a2FCf6A777fdaFA7Ba2893CA4Dd1f68975A
,,0x2763105484b71613ba1fd4aaA45ae9d355570254
,,0x665410dE86f287eb8829EcaC706E6cdD6BA6939d
,,0x4ADE10bB95551271F9CFB31B65936e6a3cd64d68
,,0x2DA49d4f5749e18Dec46193128aC5C165848b430
,,0xDfFc1CB7e2E651dD04850ef85BB92F83C2982577
,,Followed!!
,,Followed!
,,0xB9D3Ef9F70adBA5e6C97F9E46676E53F9129B93e
,,0x2C460Fc230F031014274af82B4c11E2bfBa642B1
,,0x885b25F5aB9Aa683BcF834CD0E22aC03A1Df3cA4
,,
,,0xb1c47FA2426ea75c659a8CF86A9Dd683a84F6A92
,,Followed!
,,0x63C710C9020b7F883E54D1aC68e932B27bAd59c5
,,0xc9AAAcb5672B0386B334475C4BFdd3b2b8Fc0a2d
,,0xe2470Ec919A8CaEd06E1C974e073d5082B721751
,,"Send ""Followed!"" below if you are done following us on telegram!"
,,https://twitter.com/shin070793
,,0xb6cf5212ee61f5D06779591a64Ea202Cd98C728d
,,0x3Ad7458CA606Da57aDCc955471924DDD91f1bd37
,,0x7739311100e5Ea57E4a8888312A07d3d1BA4a81b
,,@MisisFord22
,,0x5895eB91430A9Cc9E89774558FcBA4F52c530De2
,,@Will99307648
,,Followed
,,https://twitter.com/iYearnFinance/status/1314459189419274241?s=19
,,0xbE503A861E0e003a3cE36f883F7282671ce6B6b9
,,0xDf24D5a91056dCC6D104295884b27f96FfB1C792
,,Followed
,,0x7866a27B50d578999Dc83D1ED91F7B3a4B4182a6
,,0x7054e844f99e4cD4BC07516bEe45dC0755817BA2
,,0x1582D10fCF8c9d8Ff1BfAb0b27fE59840F82Cb18
,,0xA8312b350348344650d0101ec26F25DD9afdfe13
,,Followed
,,0xc82a3375658bD140b2C862d59042e58197a988f5
,,0x00246bc61fE72be6F3FBd1F425872eDf365a0DF6
,,Kenny64562491
,,0xC26eA5E828D496752d62613F7365d822D146F7a8
,,0x226AFF439Aeeee614ac6c53d4b84171CE0F036d6
,,0x17ddC7c2713B731b1874112fCCbB5315183eF90d
,,
,,0x5635b84554ef1645aB313CBb92dCee02fD117F82
,,0xa5F08496312180b5D75C6061D2b3b4e5257CBaBC
,,
,,0xa506e911C497e31Cc7F02bb36Eafd635a0c61293
,,0x4220c14096fC8Feb089a0Fc8a9A96C2A08125E6C
,,0x2A67e292d1FB9a499C49575AAAfF8E4a4c3d0c67
,,0x6806E4F2793FB9D0D47Ff2eB78B09A04B2cD9f68
,,0x872fEBc6626342B5177E1C5100e6cDcd21DC7a71
,,0x1E1c8535F79AaEB030C47427966a3674FcCDdC17
,,0x444EDdD4784BacDB6f677bf3770e17162C9140eF
,,Followed
,,0x5636B735Bb836D768e907fD7FE640dfbCe82bf11
,,0x6f4d249f51de756a844cb7096607f262941ebec7
,,0xA01ed361a2B6A6BF7D0bF3807fc101F612cfAfdb
,,Followed!
,,0x9457d23bEcD95F3fF1d25274429101B2A9EAAf25
,,Followed!
,,0x28055144C32677E57C74E1a5fdcfb6B16cE00198
,,0x7eD8E4f33d01C5C8D5038159d82082819991CC15
,,0x568f8e8509c5B97f144783579f53e2aa4c70f7d7
,,0x484C414Ff1C0a4A41578F00564EF349ad0924040
,,Ojdavies4
,,0x4b0bc73B6E00Fd0EC356607cc6F00bFd43432a56
,,0xC78493fc304D58Ce5A272959407dcd6c0fc47B0f
,,0xA1BC1d661a90402539a9f44AD3481C828F1eC6a4
,,0xdFd9c7c9a7cBc0C38a5D80D8Dd5D9E5ee1DD54F1
,,0xfB78dFA7D6C86221236C8D29C61E96a56a10FD09
,,0xEA2D601FA26dFDCC1D073Cc79D1693E4E20B65E2
,,0xd64d37BDAd19Aa59d9c43Ff4F756F19809BFD761
,,Followed
,,0x63045d4934a1BddC4472bE7D60EF8d5Ee453D99d
,,0xa95d31F1a3b6c366Db275a4FdEBB2ec3627B5930
,,0x2ea6B823ac6795afA6bd2371C31276e06C035a06
,,0x91c7631EEe89F17617f1F504312ad0Ac6C32d619
,,@phuongtnn123
,,0xffBcd5F5aB5E7505ba78D5060b0a49431b60d4A9
,,0x61A0Edb1A8a742F3D4da3AC3e758286A895D5EFB
,,0x819D69c2724C226F348cf4eF508A4efF5660fc86
,,
,,0x2dDA72036e3C94AC4157ae504e8cb502d80Fb247
,,@LMinhNh77382701
,,0x913Eb25c0e3278d18E5D024D876C1cf9fc26E42b
,,0x68CD10F06226CaefDc1996282AF8b11e15759008
,,0xDFF88B7D69310D0b9Dfb343486e592b04A2E5D75
,,0xcdE8Eb093E1f00c11Daa1Ee3D6C26Be5Ae5b059d
,,@Mrlinh0011
,,0x57a4196796751e015a667B4bC7EE79652892B6C9
,,0xAFD56585E1dcd5Ec7b401Eb03B161D545fB25CfD
,,Followed
,,0xA3e328A7A6f2027975c19D40Cc583F9b11BF6B03
,,0x53b0D4c8F60E3dC22b9348FACbDa139D1ea3959d
,,
,,0x3c8a9F8565AB78Cb9476d07930b64eB49B473CBa
,,@emmalisa220
,,0xAe979E740642656C47A3544C1F49a38825e4a71E
,,0xbD11ce1d8DB295c443143004F59E5f608F771c88
,,0x173a6261aa9859f9Ce3b20b8938e5c7c85b5e7C3
,,Followed!
,,0x5d92bf5F347eFbF58b36791e2024B4377fA7c11E
,,0xcE6df489a4e2c42b97d302a9fF9a34C5bb5063E0
,,0xa22ffe07ac10629501eb359660fa56e20daac41e
,,0xE02017740753cC982D6A037feDe785Ab0c36b166
,,@helyson3_
,,@Ashu27468587
,,@halan1980
,,0xf4a6d4C2f4688A1773178cF23080c24051f4DCcB
,,0x6CDa7Cc2Cf7e40eD1c711d217Dc4f9d1b227cdf7
,,0x5635b84554ef1645aB313CBb92dCee02fD117F82
,,a
,,0xDA0D0e8287B0c86f4664cfbcEDc7F5920D95914A
,,@black28111
,,Followed
,,
,,0x7fD44Cd91FCEe5BfC64393c9210F3147009f8ab9
,,Followed!
,,0x58F712E0cF1E5a2F9FB0E287171F41ea81Ce59fb
,,0x18E055889255b19B59E69CEB031323AD1312B943
,,Followed
,,0x13fb3908ECE87b9d24e30DED65267B831953998c
,,0x1efa3987685AC6df2F652dA7a2E1243D0199eFe0
,,0x258CaEA3f53c4F1855947f9c8C9d015f7E823844
,,@doviettam3
,,0xD633E84a6aE8fa889AF0F131AAEC4441323d176c
,,0xc5b72E2D9E97b5246A4734461301db1Af292cF77
,,0x481f211F12c2B1f898C54335E77bB969fE5F0a9D
,,0xd55d35227f1267108a73Df434f4bCd2BBc7a69DC
,,0xEa41229C5a6e2044FBc72689d0Ee60BC4A0eD9b7
,,@Linakay14
,,0x38630B2d50d486899Abfd1b8c18441B89330dc62
,,0x34261f80b3Ec2D8d9d5c9D57f076AA5d2d989982
,,@tongvantuan90
,,0x1c7b3755ac383535E7E9D5b5FF9fd33cC0C101F9
,,@TuruDo1
,,0x78833427Df4BbdbbC6e85939a037Fe08301faaB6
,,@AntMan81930426
,,0xbdf1C26C4AC6A106D1d9AF21686B524A6E9046bE
,,0xf82124082FbCf8125b72684AfeAe540548C7B1fe
,,G
,,0xc07a01DAca156Abf2C173bD203dDA2351fc24678
,,0x0E8F793CF2176bc9879E22458070Cf310758E50F
,,0xAdC1cC0B07f300c1B87B160A2B81deC01D05D2DF
,,Followed
,,@trieubaccb
,,@phongbg
,,0xe6b7eD0FD4E2843aA58d9866994d6BCF7d69A2E5
,,0xA98BB8A58D36E9ffD68b292d3b6c08ed909c40ee
,,0x720AEb7b6Bda5a68c27C98A2585Ca1624D45f034
,,@T_W_Kaiser
,,@thienduong991
,,0x3d5292FC7F15139EE79d67212e936e64C6B23629
,,0xf6cbEDDe7a11AeE2E058524Fa455CE481B632Da8
,,
,,0x489427ad9D8Ca0e6e06927339AF4A7Bac33C6B33
,,0x7ec35Ce100de26Fc319b45C994E8Db1Cb76b459F
,,0xDB77D8A98D56D1Bfb56ce124Bf237326f4F22Cf8
,,@ratyy58771029
,,Followed
,,Followed
,,0x6911d30CB341d2B4dce5A23e8EC5054c08c7595A
,,0x5635b84554ef1645aB313CBb92dCee02fD117F82
,,Basil
,,0x529891EB054a67c8B7F8578030c18a222b2B8ed8
,,0x3fA8E9279146e3e8911de2a595E66fBeDF65aaaC
,,@OMID5467
,,0xb21731ee5603c074B0B9d23eaAC897F852e082FD
,,0xAA7e302aE501D3E25bc1C2bF235b6cbAd96F7201
,,0xd7Dee6eBe66266d11E3deDB91EBbAdbC5D920435
,,0xb5eef15cA7fB8D73661D410b3F85c5A49ca20FAD
,,Followed!
,,Followed
,,
,,0x8d95E1460B81527b41773B6C4B2f9d506AD98880
,,Followed
,,@Starniiray
,,Followed!
,,0x9c82b64314965574421aa1c9a449a6e399acae698878be5079e88010a9e69e5d
,,0x1F8C85AE6CaD87AF7A477C5c141166709a59D76B
,,0xe1d1301ad60548547df8475E2E5862Fe68ffFd4c
,,0x469233F23Ba5a448542eEc73ed1161226b13B394
,,@uonormal009
,,0xCBaaFd37d054C33C1Abb0213A7A812161Eee8255
,,0xD65097b24C1E4cEB83Fed4Dbea404f70E86D7322
,,
,,0xfF6AfE8378861304B83f0321a2DD795b29e2A235
,,Followed!
,,0x3ec5BC28734E03012923B6e914106CFaFc631187
,,0x24DF4db5D7724C39e605542Cb0905202E10EA991
,,0x482C0b166150Eb457E533DB89B07CB5E25C3f475
,,
,,0xe2ac919f0C39Dd21c3020A85C0878BaD6477Ee88
,,
,,indocryptohold
,,0x16F873C55734599f814EC4F4a0d12c51AD4618e6
,,0x7bdde05b39891bf45f12c52b2b3b2445cfa22623
,,0x9959A4f63E009c2D318c114528e6BfEbB5D1f1b1
,,0xA52e8a725435AA56026Fa06d90BAf5BE036a9227
,,0xb9e96AF9BeeFB96657189E244631C00d54A63978
,,0x2ECd13f48099e7debaE1FB661fA1861c17D11C17
,,0xd7DF07C68F94970949556FAeF6dD293390C9efdD
,,0xe6eab31a36B9e23f4C3a4Da2B2C9Bfea71be23B3
,,0x09Dbfa8d65690A1eF4bd729Eb453DD163d582B56
,,Followed
,,0x33e619431c3bD6301DE8D18c47211F46CF69183c
,,@norman04089510
,,0xCc3631F63a1E389AA31286fAe6F2c10B496846c9
,,0xA75A881Ceda9CB5Dc7ce3C951ef4aeB24330813c
,,0x1b6902224626BC3F56E86Ff31065D82a55C793ab
,,0x03a9FC57559613F66a9106CaB60Fa3ae892347BC
,,
,,Done
,,0x2Efd27784C05340E8400D74e527Caa27E3A7BB32
,,0x60286Bf597397628E781774105b8284D58Daab96
,,0x8D7829705754ae2501048F8824457f8627697802
,,0x380FCCEeb8Abf99cbD74B43599389E5da7738FD0
,,0x2a4646D940c13c7Be1b32FF5D842bF1335823a47
,,0x139937C5d2fA357CaEDB4D3f9918973C006817bd
,,0x06B76F12c87Ff80913f6211549E01b4DF958A0eF
,,0xb29a6685fd519D9B6bECc462Eb4624104808552e
,,Followed!
,,0xb71bF0709341Ad34F729C0D1d1C53e46D9a98E83
,,0x2047abF1fFfbBC10cf69E4b0166fa018257AaB1e
,,0xE2095bc85353C27f90DeC8918d0E28c1e2CEc9Ac
,,Followed
,,0x7b489A1F8ab5c8036AAa717d248b88A4FEd2C0E6
,,Followed
,,0x521D7187175675e53F0cDbcEBA43E17Da724896b
,,0x731EbDB202A2eCa5a44687FB9Ae5b8f12d4C063f
,,0x41B9E61f0782777c135b5C0bEfF70F1621b17a00
,,Followed
,,0x00F40Aba4acBc935B825B3b6C889077378A6C8a2
,,0xeA1D124c52cE0ecdd4A544166B07Dbe1A0267337
,,0x39fd2661c64D9104d8A107480b0407160f78EEF7
,,0x60Aed66Fe8C5aA2A0ddE5Bc3C3A82Be1dA64A755
,,0xA8C5E4027b5AB653eF05b9D527c4caF745D09a9e
,,Followed
,,Followed
,,0xA4fF6816a1665d876733Dbb34ACD87CEcFF069d3
,,0xab0D1B8a93AbCF1AC64E82774b58f628cfAB32dD
,,0xc3907e5c170c51Ed76f9406D5eAB1de9051725A6
,,0xe6B1A18EA2d9B324b16b27e86577Fc1493feCc7d
,,0x2aB6e8E32c57bf1C7f051C210ed85fe2a2d6274f
,,Followed
,,0x4E5b389d8199ff79a329997160dd56387Db974A7
,,Followed
,,
,,
,,0x9E599DF047DEada55F6b15aF333bc27d8BCb302c
,,0xBbD1c5ceE1504E6F55BCC95B167138Bfd60E4c34
,,0x35B2C1ddE76eFa48A8865618478Ff85C8539dfE0
,,0x3Fd5d5e7b5fBF06a1C376faE4C06a168C0db024A
,,0x5d0071e792EEEC77fE6010D0383Cff6FdcE9fDc4
,,
,,0x8b40965a1b5f8feCBf4cFdE989AB68544e5Da188
,,0xda9251B8e5eDfFef29d3C74DdAE6cd41BA0a79Cc
,,
,,0xD2CE5B52Abaa3AC7D54Bf80f6A8D273C7A23138c
,,0xf0423155789AF8fAf80d4C3462651d549A53d0D1
,,0x85DEF4824370f4c928D10f07510FA36e8cE42388
,,0xa3c8b806c4D56B08a788356222423d82004a86f3
,,0x87826c5AB6B0EB3dAEd16df2A9479630f9930AAB
,,0xAB0934d51a2649a0675313e9dA9cd1269F7c5926
,,0x71C28107aB8BaC2F885FBC5702296b26c96Bfb88
,,0x4633838c575c70218FA9B332eB43196d38159ee3
,,Followed
,,0x77398120754e851b0AAf17577aEC5CFEE900912d
,,0x2764bD8Bbe5832819835702d7a6c3854d07e3680
,,0x151355FE732DCA6b671ed185f6A3d713c713d7a4
,,0xe63dB405c99062D4865978777eD1E2795e6f047D
,,0xA50CE7f02D0b4Cd77E624fe1633494c35B5F4cD8
,,0xD683f3469612fC68c0e116cBf05D4Dee4F297DCF
,,0x7fc9f0a4A550BC8A83Cf3fd604e1FD3DAEF4f083
,,0x0EA15ebbaAA4285Dca6d0399953dfC09aF2aE245
,,0x2df1EbC8F8DD68f5F293b6e45DC92B73cf387625
,,0xF349409ce9b1aACAfbCB12D7A1B4e3E9B5ef98F0
,,0x86b014E565b31B834c644DB96D7951C2f0c7E86C
,,Yasin
,,0xa83Feb116F843Bbd4BC2f56f5Ac0BFF2F1859c48
,,0x824e4cFd8eCaDBc68394c4a4Ca8504A58B19a3Cc
,,Followed
,,0xf761d06628b7b609bc0ce6fc3cdfd40af9b9b531
,,@mycryptoservice
,,0x5B4afA678Ce3D79449707c744977944e403E5a3e
,,0x8a5855f78962C5c6620fca7a40691b39AB291fd7
,,0xcDc7AA12C9a37ffAF65F5fa30bbbE3a92D51aD7c
,,0x166A3630cF2E0306dc8D9B2326291aba83579E26
,,
,,0x4974F3Df093DCBcE2c0073a5632fdb498fE97e62
,,0x9683FCC75336c9ecc9550261C4345Ae90Be081A4
,,0x10A965c9cf238dFE3ac91945C47bb791D39a429a
,,0x5A371205B69272d979dF86fAa92eBC76fDd874e7
,,Done
,,0x7DD120a3E61cFdd91c520162a8b23785F1737514
,,@vaseemahmed1825
,,0x26D9DFCA8F529C5ED6dEf244f9d2D05B45fB2f21
,,0x592875ef176DA70C6E409870E1B1F5314c3CD287
,,@Shamim066
,,0x6E0e797394f49723FBc9bf8Cf52f4961D84ab754
,,0x810a1389bc4c8DB2dA5085DbA5E7Ec3E59e9b029
,,0x6F4C65CDa6F5410BDC12FC4834648A8b5B838f42
,,0xf178879bC2038A43964A2B6Cdaf680B87f955F22
,,Followed
,,0x79FB80447a0F95e137fD225F24f9972d297930b0
,,0x3D410E5711872A40028695382e9d562d1B42fD89
,,0x24a30224a92ed63818511b7559b30a19d7c95135
,,@Shishu800
,,0x4fA0379f4E4933907aC6942F07165062fD4d64e4
,,0xe6B6022EEbaF3244E1af74517E4Dc2DC42853A72
,,0x7597908E68948A7e5fE6623e15b16Ca112433dD1
,,0x22ED0C18eBe0B30Ed6bB3B6dB3f19d7D32345675
,,0x93eD3adf8525C651Ad8D17E02cF07378417623d8
,,0x0B4C75bA7AA407ee18d8130647A6d38515397654
,,
,,0xB2E95706aAc6954ded774863f5D25A26e64B7C4b
,,0x45Ff046A825F9C727291A8c73ccBE1dfa26F4471
,,0xc6Ea4AF783e20635d2747F61517746FE526ca713
,,0x6C56Ec6B28f2D1941d6C6B65988EE51dcB6accCb
,,0xa96de988915DA75bd3b3226e4fD6372f7CdbBaC5
,,0x08b9Db6C14F317C66B178BB085A40624C5bab9e4
,,0x9DF4274FF6Ff1ec6C2b833988813C1734DB13503
,,0x6cE5EC47AE7daEe4931079562bc3D87C69872804
,,0x873b7bA6c85Df60f33FCc91C7bD2726B1e8bb0aB
,,0xd0266F6687C657ed4D271F11F79Bb9945Ea283aA
,,@HaebalooquoO
,,0x0DB3DF8D90454eEE66027c257eB29ea2e6e0E082
,,0x13eC2a2d786299397F167A8c31029347A5D991bF
,,0x7218F9929f95A323A9423469628121D3549bD606
,,@Himanshu_kumar0
,,0x5C6274646D6224bB60ABB90b6250e29Ac63d4af7
,,0x93c9ae1Ee6E26f82F873c88a1c29a927489cbA0a
,,0xaD3a584C5F01D11186296b6761dD5e8FB0D7d166
,,0xAaf75bB8E5B2de32eF2d99E679fa6B0D7F7aa4f6
,,0x16035Aa23512ed88c409Effa9F45E2F3785C25Aa
,,@ashok4686
,,0x6a19Faa0B64cDa0cc9bCa942749C0C9694Bf1fB6
,,Followed
,,0x6637Ca1193D3d38675CDA7168b1A63f1406A1119
,,
,,0xB1e0f410e82C876912cF176bFEC6D6BebEB34761
,,0x9e0848F3CF1822154696526e73f58E97E2c5de3F
,,0x179cD416620E99AA70b59f04f90e4c71F3C294F4
,,0xC84226D0018fA03c1859B49c192AcF5f22980b59
,,0x8e10133913a0B66750d6AEB72a7C4aF93e7B3110
,,0x0133A27c39654E2A44A29c9734be07B0aE419361
,,0x5635b84554ef1645aB313CBb92dCee02fD117F82
,,Followed
,,0xf906be68F526C276a860a6CDf4489d42D4F457E7
,,0x1d9D02F3c20165fadaFacafe09a7bb288F53FF49
,,0x64be29bA5ad1B20179639A70A2C3DD65bbB3BFDD
,,0x2Fb91081f99932945677D9614AF478B4A827e702
,,Followed
,,0x28B0715100Ef37cf241336887251B43912c75EC6
,,Followed
,,0x34b64c02E41239408aF500cC89F349D998bBcBBf
,,0x2F18630BeD2123b1B5add6B4abc12C2103F39B71
,,0xB4329BF727176CB6653423f5054B7a973c476B54
,,0xb9b585bFE40E7934E0691a3Af76CB3f612714574
,,0x7ad5BE48A9c1d5168eF1bC37672D6D45f7A894aA
,,0x86Aff1448E56c44B081bC5A8092120d32E1E48E8
,,0x332c95EdfbE02D7655e9F5d9d349F41468C867FE
,,0x604255E84c6Fae28E11d808d8d3823De354D3e7E
,,https://twitter.com/Princes84306463/status/1316018926384414721?s=20
,,0x5221D853CE275656e60B63D4FB5D6001A4e68c38
,,0x600A1aF999c8B01d9D1256FA06a39d6a5cd28920
,,0xCa19A7d9eF554af285816B88E36F4baaD112A27a
,,@AlbahyAljawi
,,0x675BD2100650DCFB6436Ed1723775ce2fEa15d84
,,0x6982E05c0e07dBbB7D9Cb93f5a750A426827BC77
,,0x1b654537deA7cE56B33912CD41a6f0D131a5b053
,,Followed!
,,0xb2d30D06Cf1bb959BFbAf19282Dc1809e465d03c
,,@Dhamaals
,,0x40ba825ac8D3aBB961f33b3aF933e681d4Ffc900
,,0x904536C51db4cE12e2600Eed5E21D5b9fc5277c6
,,0x0f3Dc84B2Cb5283DfBED65eF1BC8F1c118DbF9b2
,,0xeFD37aC7F00d523Cdb182665920f443b79DEDb8b
,,@vkm3222
,,0xC51018b483B028f451E4202fc537a6BaC0447d56
,,0x5635b84554ef1645aB313CBb92dCee02fD117F82
,,0x5635b84554ef1645aB313CBb92dCee02fD117F82
,,0xd415b0CC965B84e460FD7E4Af58e8efB15C76607
,,@Gautam1997
,,0xB8e99Fab2Bb2B8f3320Ef8F61ff511f6E01AbFfc
,,0x4495EEa5fd4712F62915Eb1E13b6c2Ad1e3c2C62
,,
,,0x704d73C2b07DC62445F3968F90D505E2d9CF699c
,,@Diegaosjbv
,,Followed
,,0x093f5A4F5cd922c17108390631555eA3D17838E2
,,@_rhythms29
,,0x9Fc2ffaE61F72846D1a1398c859b1e6e0Fc1cBd4
,,0x09296db8d1cb896C785F7a20e15Da0358DefE48b
,,0x1d95259a00F601128E4E1f2612dF34e1aF20D31b
,,0x9F13A2E34e0e438836aF9Cea2441486Af8c9ceA5
,,0x21c6B36c7566608028Fc0267365cAae51EF710D9
,,@Ashis81713362
,,0x13E584CE19086e1b56B38e7be948f100D0299558
,,0x31d8b09ada7e85aE63F5b7ee2fC25bF524300C56
,,0x66C6A8c40D9452261D9f4cE799A4cDb25b8f1353
,,0xa2E587DD323DDdC2Bb4Efeb545d1Bdc008d77b0d
,,0x696bE3603a110CF2B827A8F977AF6DbDEfA2c317
,,
,,0x6696419c51361224BFeF4B5C3c890d81e2297b87
,,Followed
,,0xB15b6Cf41ef81F7e5DCdd6B7c68B0Ed0815DFDA3
,,
,,0x5635b84554ef1645aB313CBb92dCee02fD117F82
,,0xB2e74458F847f83d5efA771Ed37390b1d0D030B0
,,0xe3DE1e27334d052DE030E173f0F88cEd0998525A
,,0xD2097CD0BF905cC3e6CE20Af4E12bC06eA9a07EE
,,0xd54ca745F5417189e898eCe661AC1131f1D8aD43
,,0xE2cCeBf01a76e4C76CB23d34f99b47a61744fBB6
,,0x9A8aaf42CDc591b8442D6aea643034E425E6c7F2
,,0x728649e34F066a06055c99aF319f584f3B0b5587
,,0xf72F4487A023936e8DaF50278ed08d6bc4B10373
,,0xFD5612E2FB106e6153Ee23c9a9F3673dF34a8c45
,,0x9DfD7E9537569F99dDA7f2faCBc64F67C8E3c0bE
,,Followed
,,itsabcdessa
,,0x0aEdEb7931130F9690196A6c36B0B55C5022f982
,,0x378e8fAE46977846A88B419e6aD0471dF7441eDD
,,0x99D31983D46653a64DD5E627190AF8eD7C99A853
,,0x592cC51dD4951517d84768090fc41B4B11Be47b2
,,@rajasharma7007
,,0xa2E5DE9AEB075EcE0fF6ac0041a33103CD40A5dc
,,0x3dA24f8441171130db502dfea48055373676d21f
,,0xf702dcE3CC3436242D1774AbB253468Bb2C0AE84
,,0xE6943A33A364B1AA7997f636574b127a67E7C110
,,0x86bD3bc66650198AB4bC70f6f61843818993c39A
,,0xe0E21BbA8f79A82dA8a177ec40c246a727A53002
,,@jasmindwivedi
,,Followed
,,0x2cD66ea75599B5BE18aAa6Af66336eE478409Ac1
,,nicodrummer01
,,0xcCE22b971Da1Ac47fe17Ac971cE8063a321cEF8E
,,0x256A6b7B88A581798E0C79319592EB88882D8E88
,,0x0c1b3ee1394f33183FDa365A959F66206401633D
,,Followed
,,0x78De1F9f2648562ad5938c50f0B4de23925a2a95
,,
,,0x5635b84554ef1645aB313CBb92dCee02fD117F82
,,0x66bF9e3F90DF3de5a8Bf6242baeBD2BC9737fBe6
,,0x10824ebfdfe92B2967F7E4d5D948E8f30cbb5B61
,,0x66981D3C325704741f429bE0d05D043ED901676a
,,0x25B7778257Bf98F8030ed72d70959406F2D7Ad05
,,
,,Followed
,,Followed
,,0xD60ecD04293d7ad50dc5D2281123a0F1c0E123f0
,,0x1aE3a5486ddc531EFe35b7A25800D12AD26fB192
,,Done
,,0xEE00F50b30bc0a47d3B89e219939DCb39C93714E
,,0x057A51529c95e0e8Ac6228D62123E7cD71D4CC51
,,0x32F827C3eA13Eca30D132d11198fa62BfEF35F77
,,Followed!
,,0xbC1787e90DB08861DF959728c4372773aBf83A54
,,Followed
,,0xd741BF66F6db59ff2403BdcC64Bc546dE3B7F0B9
,,0xBe57175a8BdC1F9047dF49CA1D781be744F68B45
,,0x711fd5a02AAE607FEc9490B43e087B516244d182
,,0xA953C2dAEebC971048d0EE849C7264Faa20E22b2
,,@Debanshubanerj3
,,0xa56aFf6771196aE5462c3b813d1cc77351788A84
,,
,,0xE485D0bA68f03aC3FD86491EA3398EE964cB143e
,,@RohitSi13922519
,,0x6D9116Aba8Ac29C98A2E9bbbD33F71d8f7b9c4dD
,,0xdeB9B3952d5C5f0e8011295C7f8100B8f2072056
,,0xE5De1A6aCf183F317Ec3AC191cCaf17269Cc097B
,,0x31c8144d7dc7eeB93E9A2Bd6A3E603056FC9D200
,,0x8F620EbF74c65502f4E262F343E6D8099375CAc3
,,@mrhandsomezai
,,0x9f7b3151884C8fb4C57c8d473906D46b9bdBcEAb
,,@Shrikan81870181
,,0xF7cEb5622aD90a6d65aAa2032F30cCd13Ff1692d
,,0xf217A14fBB4e7404812B37962E23A4Ef847d1629
,,Followed
,,0xd4927b06Eead56e0e947749b63D7b682175F0d83
,,0x904D016356e067EF237365582d826df516D83d2D
,,0x8e29d26155C6e7acb597495dfCf4A8831Ed57C41
,,@alterous999
,,@rajansyal9
,,0x09BE98560906515e19B2576B2eca1b0556F5B8B4
,,0xF4ab6627b90eF741846a3f06C1D79880Ac8Fb036
,,
,,Followed
,,0xdFA2500f198589dE0cDd1b453BB51d81C0733B8c
,,0x06C2506BdC9a3fdBffd9d2104085B5889E389DFc
,,0x369718558Fc7396572C858cA2C0Be7f3f71268B9
,,0x5635b84554ef1645aB313CBb92dCee02fD117F82
,,0x8C8E154DB861FecD08451d5E7415fd525f9fc0f0
,,0x3216D6f79eC9987e3c41D8A7afE3ba1378C76285
,,Followed
,,0xE4Bbf353C418f19C6c14C9BdD3B16c8a238dDa60
,,followed
,,0x68Df46cB745211193b948123BCAcdf9a3Dd01F63
,,0x361c30dCc83492B53cDB7dd9Aec70d1036F3bd13
,,0xA521d9b48E9eEbe92ccEa1c203233dD00D3be5f0
,,0xe3D2a252F715a6ef77fFCF597100bB50c20aCdCa
,,
,,Followed
,,0xdBA18fB59FAC91d0DD2026604fB903471c9D0893
,,0x168D034C092aC4b15B596d28Deee3De3f64AD3aE
,,0xceb4934658195574Fb3eFb0dC85a91920B80f9F3
,,@rishi37718059
,,0x051f4CA6BEc38628Fd182c62eA9b12A1930332bF
,,0x72B24B819E5cA025567f924B2770e0EEE0C070C7
,,0xF6dC735Cd14e6F9Ab3Cf260E2cFfF7d76Fd46ED6
,,0x2A24d01F7D6f109502Fb8ad9BB1D375BFE5bFA19
,,Followed
,,0x8C6279fe7f47b8bC2a9f85b95bf370f888444D64
,,done
,,0x5589C37e0A50Ee7ABDF7FAb26C10eF21935456E7
,,0x5635b84554ef1645aB313CBb92dCee02fD117F82
,,@mds650775
,,0x6467CD8ddb1f3E420431F0F807AEd49ED0Ce1774
,,0x94Df0c855bB66832eE8dE11E3bD7024dA4E8e701
,,Followed
,,
,,0x286C5C0dcd7176d663a490fcB894fea77BAc008c
,,0x5c440F5ac0eD5E0D48BE64a9999c872Af8B6f11b
,,0x80c36f0aDeBFC1038894Ac8629d96AdC260e8767
,,
,,0xC80A14f483BdCE1fC43766bbb873dF2f9a2Ba1a7
,,@preetampriyad18
,,0xb9b384624234Ca2142cc8c1E7db8E27d7aE1720F
,,0x499d025b5EbD3C658AdcD5C2410C9eE1F3f4859d
,,Followed
,,Followed
,,0xE8109f971eAc7Fa6c62C218fE222802B32b05265
,,https://twitter.com/iYearnFinance/status/1314459189419274241?s=19
,,0xb8aE8108a7030F01b11869E90Db0327b776d61FE
,,@Sanjeet97320900
,,0x116175a7ffA839755FEa5478d490CE4Cd334BE41
,,0xC26b5AF9C7744b26a1d243dDd35B949b5be859D2
,,
,,Followed
,,0xA885B1897aeeCC2D7fFb937C285D5D80F611EF35
,,0x5635b84554ef1645aB313CBb92dCee02fD117F82
,,0x7cdf8149CCF2DF9ACDFfA24bDa11674AC5B83fD1
,,
,,0x85815dD8aE70f7dBC2F60755d2DAa069Bf91c458
,,Followed
,,0xFb0dc70120e21eCDdfB28426Bb154daE845dB1E2
,,@hemant_malvi
,,0x566B9FA4c9fe5479f5f55E95D9793252461c227D
,,
,,0x75E069afEE263F639D3a4A7dc70199F858F7254d
,,0x12640828F23D6477462469A41A8B80e371D17c1a
,,0x1B3d097C04591D7AEC0df7Bf93f703fDA72Df13c
,,0x68934693a208A7dC117A1EaDb1B14E4DCec7Ff86
,,@Raviraj95253504
,,0x19115CAD27318e80d6e9812aFC8061564181B35C
,,
,,0xD132Ded914e89B21e59e02B97d71fd4289Ef68B7
,,0x80B80263a96db801DD2Bf12a2FB11914a9CBbB58
,,0xE6C8C6eA1FB3ccc5Be99B9A84F927176e2B44Ac2
,,0x2C24D82Dc42caA4f5FE7BB6C5B98D245317Eb300
,,0x55ED986d5c2CA25105Caf1f5A0c731c4F1a7A12F
,,0x80ABD0560F9a4bFf984CdcC3c354d49c4402d955
,,0xF694c3024DC95ef6CAA58106a662FF412aE72518
,,0xF1ed21687C43E6350db9b07F5906884EBd3B5192
,,@KyawZin52036316
,,0xBDB2A9dD9A1585e6e302867388B4F7F8090F04F9
,,0xF599d1523dBaF8DD97DacF87247fb8547aD23863
,,0x720A4007fD5F34ce15cbe2C1021a846E848FF122
,,0xF787cf35709AC13a7E61eC713ddacbDD9388A2Be
,,0x0C34eBF011f25F6b886738d8B5566e8B634fFFa1
,,0x3622722a506Ea10a4adC54D2d13C0d1f312a1179
,,0x675aA1027C104C605FF7aD4Aa9197c29dF85d660
,,Andry_Jr
,,0x27513cD033AfD840f98C53E32730d4D5308C56AC
,,0xeD68fA53dDb60E8B04B75C7Ad9240281BF9952CA
,,0x5635b84554ef1645aB313CBb92dCee02fD117F82
,,0x5344917376512fA8E7aE332bBac3FCe97d968F20
,,0x1628Edb4136Fa5b11DEC3b7391f9aB95196c2fd9
,,0xe395294D6dF8A3fa627889762241a56E354A6A72
,,0x8C63C8e47ff0ea29975A4268b6459047884723bC
,,0xBDe385ff70c61f5bcd0647aa347a82DF6C3C9954
,,0x2d01470A94CBcCaEFd87DAE8ff2FE9a97F2EbA34
,,0xf20366ED15Fb7C168fa8715ab38C123cd97b310f
,,0x781Af89709eE344330B8e1c3bcC2c1bc469770ad
,,0xAa522c08644c137d0d7bf4AE52572C894071b40e
,,0xF172EB0278A54B760a0F7125b0c1790996e50D8e
,,0x39E72A4Ebb3960F9A6b4F9503A1B017640a60B13
,,0xf746961ec6499FBED71f380362E88733cfd4EEE4
,,0xffFc43eEEd3c6d9057255A2FE64984347660643F
,,0xC9e6418817e98a3cB9aa2fC4Fe10aAe7E1E99591
,,0xa2BCD1053380c0e160c2AEe3772c60e2E417a38F
,,
,,0xdDb26026D6AA53B085C309e36704A097AA931948
,,Followed
,,0xc8CCe0F1e386E3A8421b7E82F6ccEDd7b231e708
,,@Nemaykuzur1
,,
,,0xc4fff2dc5d6c41ae4c7010c7db0db43203d4d3c7
,,@gusgendok
,,0x7B3df2387Ec0a783De970Bc753bE9f27BaadaEeD
,,0xCe0a767c5D1ea8B59D94405B599A46f978b94789
,,0x9FfF6c3A25C30026b49C96fb8d1db5C1B3f02Cd9
,,done
,,0xb127248c7E413aB4118694e175CF4B8De05c2b28
,,Followed
,,0xA9938f3317e1A8010496B0EA93375B5B6F102F95
,,@Kakunare1
,,0x04B79e8e6e4B0C3DF35B4D93889c4ae73CA262B1
,,@ditsy22
,,0xc7f7F369fec9Bd813BcAF65eC7e15A159A659f49
,,0x9A2070620f1dc2A25bBda0707E4d57Faad09347D
,,0x2B98F8fba21eA34E868C0A9ef5850A611Fc9aFd8
,,0xF07b9DBd1AC9d8ca64893b1D29C6C3CDE0016C13
,,0x01Aec76e81f4733c974C8e7E187b97C84aed63a1
,,
,,Followed
,,@eneskamy
,,0xc49F36507B33948378F2fF5Ad1811BFd5223Bff3
,,0x0816d1CF771eb22b5f07EC36e450c62566Ec72d1
,,0x3B8433d1135D9690572E4a1F7a0F4c010A70a9E0
,,0x730d0F24214f16E778679c88b0c9F8c00CE3f3CD
,,@SavioYourfav
,,0x7b203E27785756D16f71954185a55dfcCd284D5C
,,0xB85955a16ddCE6CCA565D1dbFE5a130C1533C59D
,,"""Followed"""
,,
,,0xd7E7DCAf8D65a384E1A4AEF6158DEcb7Ad15d088
,,0xdcaF58f7A3e91ad7a49aE42f9454c06891FB14b0
,,Followed
,,0x57A8921eFdB8EC57321bc8e8A55349C6998d3834
,,Followed
,,"""Followed!"""
,,0xD1E7777cC35E8A64736b306b91eb7b39fcDc724F
,,harun_ajhaaa
,,@joselozada
,,0xe2E1e8C7ff08c75bDFE70E7410E275897b11c6b2
,,0xe45177ab19146746be67ea5bd8b53efd0ae3899e
,,@renove2019
,,Followed
,,0xcA84Ca6FfEe6E3285813D2caea0927f2Ce6725D8
,,0x6F722512Bf1EC593e31fF7FD1BF9E3c139007a11
,,0x5230c81F3a6A841b46Bf708F23af153A6433Fa14
,,0xd1f01a8cc4c345f310a1a0075a41b07409ab200f
,,0xBA05A3bb654Fffe5423B06C3c445aC12d98f64aA
,,
,,0xA0fBE7a76Beb91688780078e16Ae3B6D98D7BD68
,,0x51b048b96e1D91e54E032Ce52347C63a4D97aa49
,,@riskysan12
,,0x610fef292fc962ad5e1b08718478ffD63F970585
,,0x918823DBe5E1459B112765536777E9BeE214AE2d
,,0x6E8Dc3779a37ad4Ba1b0597154A18d41f659852c
,,Followed
,,0xdC06D8EaA3dC6C68a447849EDF0897E469386E67
,,@gmpenco
,,0x59815A37BeBe8737f14Fe93b0607cFaD0bF6FA0F
,,0xE9a970F851fead62801b358370C1d204E01b6dB7
,,0xBbb0c8bF9364dd19a561695e4bc483f14b51C911
,,@SimplyIndianSg
,,0x2b96b52CBe6C082473373F42521BE9EA6da40ff3
,,0xA28a3f39f85Cfac93c6A58dE97E7105260AA9aFd
,,0xb08b6138Cfb4015CE777f90b3256CF7C55A4cEF2
,,0x86C9Ec9F2Af9e6eB7EFB8E2DDd65ba80712B9Bb7
,,BananaSundayy
,,0xc226983ae9E560EF23b60832d03864177F188287
,,0xE933202a14CA0819daB098652b1C1bd902E5D519
,,0xe3d31F2Bc72E8f6DB0EB43f8cD9921d04f2c7429
,,0xEbC51c963c91a93CCd4CCA6293E0484fDFC2437D
,,0x57b1d6101508a631E7287C68652ea4d6C443089d
,,0x4cF9825f137bDF3cE42AfeE96206a957D502898f
,,0xf72201B7CF17e82Ced52c2e71beD8020eD341cdc
,,@HJegjud
,,0x2b2E1708aE330748e2B9F4Ab0da42d66CaEFC57D
,,0x5CCA083F00dF8fFB592D1aCb33Bfa5b92a906E47
,,0x83355f8f22B58A5c79a9CADC2b44DB647b116A84
,,0x89327FBa79d37022be350186450198484E062caD
,,@oltis771
,,0xC62340e78385Af449a83027ee11C346c34A3F90A
,,0x1f246EE7242ad71309cB39831Edd6da6Ba7Fed7d
,,0x30bb8bbcfD71eabF273d0D836F0b8a6E40631576
,,0x94Aa12Aa9BBbeD60748D1a3dB1FF83E077c54555
,,0xE5EaFbEA7607E03e6848d316455B7E0a76971c9a
,,
,,
,,Followed
,,@AbidNusrat2
,,
,,0x015e48ffd6dAE2424cd22ab369975473a1E9C92e
,,@HelpN1
,,0x98257C9b3e0Cff5f51007bbfac09ec7013eB1B27
,,0xD18Af7B6bde11EE9cD9b8435831067e2bf39F5DB
,,0xcAdF085c5979106334251ca0984E1b0F9930eB5f
,,0xA8b50bB75C142D935D1758FD31b16031b79d906F
,,0x94BeCBB2C02dd4A56b119dcc0A39a9EF19Fc0E5c
,,0x623d7f1B5d0F38FdD0d82efb4791E2A1bbfEA212
,,0xaB1EF72Bd4bed52Bd12B45fdB1867748Da4ed2aa
,,0x387f866A6bc7066595376C5B8bAbd17A7C3361aB
,,@SajibHa33437015
,,
,,
,,@MDMOMIN95787459
,,0x6a9aD858Ca55356aEc9A20cc4D3279280F34A680
,,0x0e29304fee49a7F3bfb4BD0C0C3d574597Dc2bDF
,,
,,Hello
,,0x3B5233C122C875cFe0FCA81c3Cbc808B6CFfB150
,,0x76297B00B28B1ec3A0F22F8F5BBe92665B575F19
,,0xfF9e7Ee90c5Ca8a58e9304a1522aeF6109337842
,,0xE0d438f221fdA02809B2702BB4175Fc5CA194E9e
,,0x49E9fC7d72637f6C68406fd51B6aB66E68EDcd76
,,0xe0d1c8C00A7d3be560676d8423cbE76b224a6798
,,0x10BAc38DDfA189C4423CEc428909966Cd00E65Ce
,,"""Followed!"
,,0xEE54a1669aacaa4B937d0C798edA95F7aF224141
,,@loka7093
,,0x4E2b93800fF2e3049b0E8dccD2212dA035aB81f0
,,0x87a5841448F8Ec4D4097d5C3a5d21125812e8571
,,0xEA34fA8Ea081363568BdcF8A2CB913F7bA2c0367
,,@jerintonn
,,0x2b20fD6C9dB8158718687A2a22d616aF5dE0D896
,,0x7962a44C077d60413642e30913E23c9eF9DC8dDA
,,0x2eb13D95112f08D74Cef1f181C3e4f8cD6193b69
,,0x98E139271AB5a981314406961ed5093902309743
,,Followed!
,,0x5635b84554ef1645aB313CBb92dCee02fD117F82
,,0xc25e20c697351BAcF4491CD2fDa0fE1F4c182f16
,,0x87096AfC8385692A8C5627c95ac625aAc10F2D2d
,,0x8c40387a0a839cd49bc4F6D98E87354ed0393DDe
,,0x9C93C7b464303555C9ea7d4a40aceE301809d773
,,0xe87a395362a16a4A4C87F13125F3D8418dC1D769
,,Followed
,,0xfd94A973fDbb827a4ff04A901854109322357370
,,@MDAkramHassn
,,
,,Followed
,,Followed
,,0x4E200E5919E0458126A1f810b6aC8D0D90FD5B99
,,@S_A_M_A_R_Y
,,Followed
,,0x0e96b158F65f5a5AAAA3abfDfabC78544b07d67d
,,@AbooMuhammadd
,,0x8db379aF1D5B094720607CcE79F10477d64B1eFC
,,0xaef377eFa102032664e802a328569075B44C86A7
,,0x0Af6d8176C82810E9DCD662B25FEedE63a60457e
,,0x6eA1583ef01c43237B7b124c4dfbFe7F8ECB4af2
,,Followed!
,,0x41A9aCDd04b0027A0e43C2Cb4f9c816EBa59A2dB
,,0x9F9fB90476BA70C13E99E43560e48Bf86Ef40207
,,0xFf63BbbcBfC38C6287ac9EC36D851373f2E1267d
,,0xAb1A05d93929515359C717c35F4b8DCf02ca3dF2
,,0x5635b84554ef1645aB313CBb92dCee02fD117F82
,,0x5d5E5956a1098877469001DB7F872D3909a1Be49
,,0xa0773D10b691653A0EA4c7C9feDFf6b4ca0Cb5B2
,,@NaeemRazaq7
,,
,,ANH MINH
,,0x64aB7BBAF6e7Df2214Fe9c60BE5C76D790C0f2f5
,,0x7Ff733eFf52Dc9bf712f8768654d6D7Fc47Dc4B1
,,0xb26c2bb489A3947f280AD3f376De79d0f12bc570
,,@minebrain143
,,Followed
,,@asylumphytophar
,,
,,0x15c60633C9c70E11048dAD813E34d22f5373B7a7
,,Followed
,,@ghenxel
,,0x232396C7Ab61C6DbF73e30a041d2b5e606f37A11
,,@rooxxy23
,,@lim_chip
,,"""Followed!"""
,,0x897079C59882e01CcC5Cfcf4631f5Db4ec43dC0F
,,0x28857c5EE80f4B34F1128b9C178423dc40F701FD
,,0xE13DC14B128869e39C643A85990EB2439B8A6c31
,,0x94Ff16e610E90b7c6c533F1528607a9b6511d844
,,0xE131d3C553a40e6b56740aD3D699c62aeBb08D2f
,,@imekaniko
,,0xB7efd9E1cdB2abE85CDD10B532305546ACC04Ad2
,,
,,Followed
,,0xdCcf6329190E05c4E1308650B9dbe3D386Ca01c9
,,@invoker111
,,0x75F0C25cA7d284ac128D94449ED09421925a8D85
,,@ugurluburcin
,,0xA7449Ab3e74185EfeA1D6895cc0F17cD7A136C14
,,0xD3f2712035aC7Da5c95f3502b079F6D1EA61A0D3
,,0x900BF7Bf98977af98A269a438227aFcbB304e47F
,,0x46d154eAFfb57c97427B17c1b168bCE87E8A5DF0
,,0xD600AD99adb3A9B76aDb1EbA2A6a92B37b7A5DEC
,,
,,0x1F6A2788BCaa647baC0c981c22e30C0ffd8Ac616
,,Followed
,,0xFB11Bdd0539a3B07eb19B30cbF78c3712F8308Fd
,,Followed
,,0xb2714c6C3ff5e0F26320f6f1890B2eBca87aa9C3
,,Followed
,,Followed!
,,Followed
,,Followed
,,
,,followed
,,0x1abB2Ca3984E2D9A2AC5d5EEd27A29771858Be8d
,,0x048Aafa841b9DD7287Ee7469d9F2cE4B17BD2c02
,,0x7E81392419Fd4Dd52cD1f0bb649D2eBA965DA444
,,
,,
,,@qugood2
,,@artem_thuma
,,@EuroVieira
,,@SamrenSaleem
,,0x3E09eC98e365EeE573Da9Ce46072075C8a59C6ac
,,Followed
,,0xAe6F86FaAACBDB356f4dacdE5608f81b3e9f6bc7
,,0xc8f16571AB011B14d400a220608b7f7ea60FD18D
,,0xBf6864E7778e714Fae357870b3033850B6CB424A
,,0xE315b83b36FCBBF634279E311bcC83a60a559900
,,0x5CbBA25357cB42c6E31D7Eb3182372bCeD8f1E3F
,,
,,@KhanhLuong17
,,0x7583c805DE4E4124B46b64BD59909576c43ebb8a
,,
,,0x3DC98697894D276a7D4762DEB1dECe69041581e2
,,0xF01c8e8dAAe97E79f2A9b0604D17B4CE0ab9883a
,,0x7a58D5faBc1b5397E4956011218f0DE9d39385f6
,,follow!
,,0xEBae79663D821b5Bfb88e8bCD7dec98B7E1342fF
,,@Garoxnxx
,,
,,0x6DD4A2dCfE919a651becA7f409ddfbf14315C23F
,,0x2dc6dA1fF67c4FA174b6666F0399E8352d43Ef60
,,0xebb8757aBc85f4842781cCf9C76B8D85955681e1
,,0xDA64bfa6D191E777a709feb71fE96B58affcE6Ab
,,@IgorNemanic
,,Followed
,,0x6b6F1b10c0efC2e32de8df7B0aDcd295697Ffb86
,,
,,Followed
,,0x85Fe357F4A9603f089F5185A130F73b0d8570d6C
,,0x231304b170c55C74e0A79bB6bf397aDB3A9DA373
,,0x84AB94B34255A9166813aCCBB44447a71C507081
,,0xa167fFCB91FF2f2C48Ef91166c848F0C20122224
,,Followed
,,@lmjayme1
,,https://mobile.twitter.com/J07507871
,,0xc090e36da65229F0e6a7Bf835d06de3020bBe552
,,0xa2262c5B7420CB2cA7F7dE766B48dd618021653e
,,@ManhKhuy
,,@NewsTradings
,,0x7d2520f9Fbac17065a46A722D50AD74eadBe2306
,,Followed
,,@samidiharjo
,,0xe70B0E6251BF6CBfA0466f309384f9477f2d1047
,,0xc3c9eD21818e2d23B6F3a80f943BaeB2fFb7a59e
,,0x12098f2a0f40827e70Af647Fa95529e8f0353a3f
,,Followed
,,0xA1b4A6EE693280949CFB817B2F22E9745881202b
,,
,,0xe14c416fA8f7204aDf9D308039906eAf5555Ce81
,,0x43480914539DC7b28581f674a0ac700c8006cfE6
,,0xe80169528Fd7877273a8231D7d0531Cc14b43280
,,Elcin Efendi
,,0x9F5bd149F8af984B02F37f88E4B274Fb14784D3D
,,
,,@maya_302282
,,0x1FdE65b4Addaa2F90664FDb6115BaCB8106151db
,,0xb25Fefa7d12E3F2E9e2405e59AbE484c382D6746
,,Followed
,,Followed
,,
,,0x223FD637AD2363814Cb98F1ACB47239a53944cAC
,,0x751133b2164e51712327593B3610A725aC24F324
,,0x9C941a7D1e76Fdea34cE34eA54A5b0728548c73c
,,“Followed!”
,,Followed
,,@Jameski62633437
,,0x30dAFb8851d4cdbC11Ff3311A327a19BFc68b430
,,
,,@teodosio_marie
,,@jonnydead69
,,0xe0D8E5CE8e5a313718CFBc6486c7CB800ea7c467
,,I∆mCertified
,,0x14201EA105801e6390Df1071DAd4b5107cE56AD0
,,@Fe5ta
,,0x30613EF74005A8E1B4CAcF97E822da4190e5c7b7
,,0xA1b717DB03846076E0c093764B522De7aDDFD86C
,,0xe3359BB7eFa67AEBF0446863987917Aa543CdfBb
,,@maupie46
,,UzocMuna
,,Followed!
,,0xD2D169Fb1904D1D61499a77E1a639DB87624D25B
,,0xC2AF157ea0B7663153F9c9Cc4b3EB89A125BB085
,,@Jakir_shorkar
,,0x7Ca657E208624a4BA7C2C6596996C6B846Cfed6c
,,0x7F7959D9EeFBab0a7417178d3218Cb2169840648
,,Followed!
,,
,,Followed
,,0xB882B087bd80a0258F19D907849c8d64CaC3dBa1
,,Hshsh
,,0x183dd2e1499b838b80C190B9e4257CB0127D3ECe
,,WaqarHU97999548
,,0xbCF46a33C165771Aec5E35eC3B0438F9fD8ba4CB
,,@sumit1857
,,@lvehearts
,,Followed
,,Followed
,,0x5700b0B0371704b6CE9a09356bbD1e7bCf8A8F82
,,0x08A1b65Dfc4A1193bC3aEaA98cAb3f21CdA70AA2
,,Followed
,,0x4b2FD0ee194BdA30C3EE3119586A1e61B9E29A07
,,0xC1BE4e0030333C0Fd5e1c631B1b109394Fca4283
,,0x484C414Ff1C0a4A41578F00564EF349ad0924040
,,0xAD816Bd7443CD9f1229e1D1436FfdA819d7A7dAB
,,
,,0x55bdea5c7c442cf52027017a7b81cc4786fef450
,,Followed!
,,0xC530fF089943341bbf8530a34Ce6441D59dACbb0
,,0x12e22c665cc6f9a005558648a384f0f9006e4c69
,,@blanksmacor
,,0xC19dE3F344d9E592b4cCbF5d334f8E9725cdba45
,,0xB6BAbcFb27df459873721c5B05697D10fF4FC2d6
,,Followed
,,Followed
,,0x9C9aF331EeFEAd5AAB00017014815B9e3a5C9cf9
,,0xE4f031247c26A68DfdB26A43cdF9c96EBfC32944
,,0x5dB61c7c0C48D42Cf5f46A6880ea85a2a1a2e5D0
,,0x836a65D7423d226e361a545E5e16026DBeb16B83
,,Followed
,,@RadjasaMada
,,0x9AD961069f7519f698C5C1eb4Ad1cE24992A6efE
,,0xdA38DbE25Cf006D1D15A105768Df8808dADcd575
,,@ Tuan12583160
,,0xb96955885A54C1E5D4a07252765F7ddB090C6011
,,https://mobile.twitter.com/BTC_Breen
,,@sugih328
,,@romeo1_r
,,Followed
,,Followed
,,0x9d350cEfB3Fe28c0AFC7823B39d1597132e08025
,,0x01485557C2BC6E26c7187ff4cC38d5d9474405D4
,,"""Follewed"""
,,0x681424054b6E435D0419fb6732C41dCA0C271e71
,,0xe8d0ecde69A4F16287930168E95dDc3DfCB57C70
,,0xa1Df721F3Af3376991295e2cdbbdD5Baf06ae4c3
,,0x6C3a63A669Df9ea03C9618a191178dc680aE6d80
,,
,,0xF3286f1F47DbCFa484ba36841e29076963311edB
,,Followed
,,Followed
,,0x503a057De2e9787290E08D39f2D9b5ed85920bF4
,,Followed
,,0x88FC1108778308E6166eB22bfC80A48714064A8c
,,0x9FFCeB638Dc48C8e69B84e6b6e58c64c0E362C3a
,,0x1cb14cF28c1b8185df0D6D19930E381489a84DE8
,,
,,0xA689bB601C7005b4166BDe86D808524B793Af9EA
,,0x7D0d82795133D4BD07E488a09eAC3c707878e9E2
,,0x452e311944583957133a7F8e61be942136f6b061
,,0x5590fD619BfA2fa20C48295601528Ce5E015d6da
,,Followed
,,0xd67Bea641952C1e920c122108bdE1d36E1C9d388
,,@pop_parts
,,0x7b4b182d74816A38e200F898b181750F6843cd59
,,0x9f5a28c2c3Ec4e522CF515A5f29f44DAfb22A2FD
,,@LemuelAkpan
,,0x3e27e1184E646b3847ab7C426A837EE31530F7D5
,,0x884B6238d6fE2833995B461DC92D61e81F9911EA
,,0xE0D3dC4Ad4d4974084BcC108Eb4292D6113EdC45
,,@AirdropsCaza
,,Twitter.com/brendanmckinney
,,https://twitter.com/rbrothers08?s=09
,,0xeb7F3fd8DcdbE2DF6e2d563311b3faeB0Dbb7282
,,H
,,@YahuAcha
,,Followed
,,0xF11Be5410046FF939d242fD62F50f8F070B67Ba9
,,0x78180bB43ef0D2236e0C597b8DD750b6D16E8e3a
,,0x5f748450e141329CC550fF0D6c1288Dc1567b2AD
,,Followed!
,,@Miyshael81
,,0x0a745833cF6472Db932B3A1689E56755298D5870
,,0x8B29a9711a1DE8Ac31D7B5Ed19ba9e86726eC7D6
,,@johndrop09
,,0xb9434E39f0c2742AfB900BfdDea3Ffc4044bA893
,,Followed!
,,0x098EcFAD62c9C199cd736dC87BFDea531b188521
,,0x500da11381c105a42a436FB98aDBC91205959Bd9
,,0x5798abA06339382646C61e4bf226D567b2207De7
,,
,,0xBaAB00e1e055bD759aAdb39d70d8812ff4B71530
,,
,,@Petimat
,,0x57e200eebf00647031A7C2F253c7dDaa8591951f
,,0xFdE45521d285079741dA153a14e489D19D34D7B7
,,Followed!
,,0x6d5290fC72D1E7FC8d1881dd76fbC91A89E06C0e
,,
,,0x9db3d19Df926a58C3d720D6A9530D8538b3E796F
,,0x4670db7d09531fab618aEdfb3b84214b34A7Bcc3
,,Followed
,,@MuratSa0202
,,@zouhairr3
,,@realoneYz
,,0x183d7854C6Bbb07878901333e811Fa17A3846561
,,@KovacNaty
,,0x89a97925Db8a2ccF6369A330f22265a49D20A7D2
,,0xfcAE5296fC6f7D18D817f67d9f57C9233D85e7C2
,,@Lyzer02
,,0xEC5B9eba2C0a906e89a0A8Ebd09303597bc26A2C
,,@Jamobaby93
,,0xd41bae8008bd1B80149d2ac691a92136bf23f0f0
,,0x29D62e1d0975bb024B2C40Ef6C878bF809245e71
,,Followed
,,
,,Followed!
,,0x6671B1371102d791135A829fFaEA75A0b677ec6B
,,
,,
,,Followed!
,,@Ditto202
,,0x82a31fAAAE47517a693CbEbC226C28291f96B224
,,0x1959c5B44dEbF5eb23Db1de507e9DCAFd6f7e65E
,,@KodokLaode
,,Followed!
,,0x44Edf54b3f5908c5Bac5BB3677AFd6CA5a82b961
,,@CryptoProReward
,,@SsjRodri
,,0x9A7c7f476015b468aDf924bC2EE7886436E1D1EB
,,Followed!
,,@tuglu_serkan
,,0x46c41E544F9800E47f46f97d7F1eBAC584980E72
,,0xE144212Fbc40Eb4df3a990757AeBD38345d3e379
,,0xb025d1e5182e074C44eFaDE573A27e22393cb4A0
,,0xcb6160395a0dA8Ff5D5B44A68A60F83719827e47
,,
,,Dawud Aisha
,,Followed
,,0x38c7B9B709E2725b5ec672d96d85C6D335AC0e7c
,,0xeB7ee0B5Ce6dd1d18A46e30Ba232e8bb97cBA70B
,,0x24becd98BC88F019c26ce5691aEc0c7a1e8A79E9
,,0x80d456558b402672458B126faD8163FEd6908609
,,0x20f89C506432987802628aEBd94068DD42fc11F0
,,0x4a53939E96Df04fd7Cbff1959b2a7E59E4F90477
,,0x8ff22E786504BA06aC07A9FC1E46EcfF4C7cd050
,,0x69964FE9E21C615c6F808a5091DBbf0ED379548a
,,
,,0x47c7Ea57fa92AE2Ae0DEd7508aEE50E2d1D33F56
,,Arobunmy
,,0x6AdE2a21384818e48f02Df53a8Ed2436dB0d740c
,,0x0c919648785859393FD1011C5F7C03962C59d4eb
,,0xed5eDd28fb4548f9014CBce23E9c980688E72f43
,,
,,
,,@GhGheCaps
,,@thomass01539228
,,Followed
,,Followed
,,Followed
,,0xb42FeE033AD3809cf9D1d6C1f922478F1C4A652c
,,0x6Ed56958895D46bC50015B0A9AC3C8E4580A2a2D
,,0x9071A01dece66B22779Ae33c879Fb4E6F4Be6c78
,,0x5C5C48aFb40937Ca57ff6FAD6B3054D6E051Af46
,,@OubbaAli
,,Sone
,,Followed
,,
,,0x2699861B581AAEe7F75Ec3067A1bC124c0cf09dB
,,0xeCC704e980c36C1FD22B8Aa7Bec6D0275a1cfED5
,,Followed!
,,cryptot62717557
,,Followed!
,,AndreyVin
,,0xB38669A7c00b38E8486B989E7adCcE0ACc0ee2D3
,,
,,SmartElectrica4
,,0x257E746c20C91C84C06cA539675ff2981B35E35d
,,Followed
,,0xEDACf003ECd35854eFEa3677e9cCedEb2Fb56Ae9
,,0xD60B87C9D0C8CA129925724e6Fc455A575E902e5
,,0x6cDBe3dF82E9C6D982c571115D10D4808063B88B
,,
,,
,,8024844103
,,0xB040Ee3AD89eB3CC8A2c2001D615F7BacC5F64F9
,,0xb8A3DcC5126Bb951b31269691E27E9ad5A2fD060
,,0x6DE1A28d410aBeA6Ad37a936065F10a6D0f1888f
,,0x4c093653045B03e656C7a0456Df1dAa2787C31b3
,,
,,0xFaA2FBf23d5136c04204F493352B304570F55f69
,,0xc2602b1AeFAE184Ed1D190727AD7E13117b0d00B
,,0xcc2AE4ED2300f49fB05AeD8F5b0f92538a7fc18e
,,0x5bb16661d9d8056C0156d2423fbf4EF6C0Fc896C
,,0x0d8e737Bc7b16787FE439097a3B54A26Ea760223
,,0x7900EE20D7D21001a069Ba9cf81658B4451034aA
,,0xbA6f63aFc3BF360707eC2f52C986cF87E84f5204
,,0x7C2Dfc98d0211c041DCB320b858239A1A5044F7E
,,Followed
,,0xE5e981Fd25188179dc88ce03Da24D4DDF203F500
,,0x4721B9Ee740ABC33410c8Ce981862820Eb36DFBA
,,Followed
,,@nareshjairaju
,,0x64EBD0924A2702cEC3572869E3DdF556f97F5010
,,raesabiha
,,
,,@TOKONOMIX
,,0x15AF53722eAC6124436Ab9083E3429240A70030A
,,0x2ecD9DfE0f2b8E6eeB77b892d594572B3233eED4
,,0xfd2d4e1d6333528cb12d526f6fa2debf2e231a22
,,@cosmosis2
,,0x4D0Eb75E1cE9B339CE59790E112E9132E56DA2a5
,,0x97C2a37804f8368F344ABD76e37f357942c79cC1
,,@Artyem76T
,,0xe8f1140b9A8FCF2e0A014DE24bc461d2ed116942
,,0x63C9453defC802382D7E47e527e614AFDCBd2642
,,0x064F4478b6e263aAEdbc5087115Dc7edF78031aE
,,0x04ad873F119d86B60C8a23aBdC9cae79188699F4
,,@LEucheria
,,
,,
,,@si_4r4
,,0x8E7d3426A5fF6dbE7e3Ac5d99b23D8ebd9Ae4d1A
,,Followed
,,@michaeleduwajeh
,,@Kaido97214714
,,
,,@gonna_winthis
,,
,,0x3962BaC791488870AD8c1651B762423C71aF0009
,,0xf7C13BcD3419722462d3C3bE02022c9C6182629a
,,0x1536aE835594B4A6209b7F5eF636555385a25dcB
,,Q
,,
,,0x53b242fC5a4300B7fDf02D883bc9F9baA5410e3F
,,0xCF715f67591A98fa9917AA069D1D051179B7D42A
,,
,,Hoodcrypt
,,@MarilynPaguia
,,@Ladybitecoin
,,Followed
,,0xf1552B06724243332633CD44835CD4db9aDDdfCe
,,
,,Followed!
,,Followede
,,@SreenivasanJho1
,,
,,0xA3b2a731ed95a59D2D79E203479AEc5Be7918bC0
,,0xB2Af59e2eef3Ff85716f0caba980CA3981b81b08
,,0x22235774A4b87A241857B289A1B16390d2BA06B
,,
,,Followed
,,Followed
,,0xC16E1c50897257097Cd709f9aCb63e40c4cc8314
,,0xf2dA39969A6BF863DAAc96f060F0FE6a5a469D09
,,@spaceranger09
,,@VeronicaHarina
,,Followed
,,@ Oleg43754367
,,0xCBD2895d1F3A3fF41451cc06D9B71169d1338375
,,@Dewaputra09
,,Followed!
,,
,,0xA6DDbCB5975b4eD50E97d43E093a4a1737B85Cf4
,,0x7E650Fc144867042F919190C69A276c603B93bcA
,,0xbab8d34513760496bAf9680D544205b9335C6c8b
,,0x5003f6F8c2be9dA182ad444aE53a53709c90fe70
,,Followed
,,0x74111be9FEBc8684ce31F56360645f77D963306F
,,0x6a6D1632437a526fE9BA16Ec798dD4A89316B5D4
,,
,,0xFf3e1f18C51521172911Ecd4454440F4778FA5a7
,,0x204d64f4b016698E7B8e02F69856b63129A859d4
,,0x74A75ca9b58DEE21005E3884f79a657FbC0411Ef
,,@tejaskuber
,,0xA14951eCf732D1D95A720e00d1f2228dD436D447
,,
,,@Giteshkumar0009
,,Followed
,,@arslandenka_
,,
,,0x6cDAcd9cD2d4A824BCe5E91F4899c959F2693a9f
,,0x6D343fBA3b1abC5f729bC14F5C83F0CAC5502342
,,0x49699EE2F912D4F65df0c2249CC7C8f82eDB7eE2
,,Abdul Karim Asiku
,,0x97F00261a91E47B17eEa07cdD4aA6eDb4ccef5d6
,,0xf1F44F672A734306C454F6669b48D2e07EEF522a
,,0x460752f519b055E5fabC1Ea44BC4F52d77da3105
,,Followed!
,,0x37A7843d5965085F463fE583bb0B705a3Ac6801B
,,Followed
,,0x4c35C32c6d040E262dF4f0C0B717EeB6dcEB1D05
,,0xc4273B52EF5D5bD80536EaC7F83d8116AF19e306
,,@vannah03
,,0x1729B88Dc285025bd97a4E435beA4204726C3d8F
,,Followed
,,0xabDdE1A2E96cb5E132B93549A4e278B00c56Ec2A
,,0xdCF7D95e53aDf2B876058F4e16f7F27C75aEA92F
,,
,,Sailem7a
,,0x0f9497C731592D304f842039d7F12eAAbfe70f94
,,
,,@kets65471170
,,@crypto_shrekt
,,0x0326C3580aeBBf7b25eAF5898353f22170dA747a
,,0xe2Cd6Bc5Af43990BaB6310E37be76145EcBA2Ff5
,,
,,@M3talHurlan7
,,0x4869E35cd6802850c6984E25E516Ee04e9a8a2bE
,,0x8Fd13db2b4d0cF83d9CB8da707B90E73A5CdCB15
,,
,,0x7B1370843087458639eD2D7aEBd3Fc5A9A329Be6
,,Followed
,,0x2630a573408A12086F2783549d758A4b712c62d2
,,@ThendaraT
,,0x6CbF4D20FbD5B24f8A49A1ac33352d58E312c722
,,0x7b1a8b997f0B8499486cC251D32F6f4E392B26C1
,,Followed
,,0x45877dA11c04c1142600726cDE10474B54eDAc4e
,,Followed!
,,@crypto_vabs
,,
,,@jawelhoor2
,,@malikibra12
,,@khmjobs
,,0xf8A6940947Eabc3eC582C9a8017F01c73BC30836
,,0xcE991Ea7Cc57e7A7385F05057593bDbFc52a644e
,,Followed
,,@isoulbratha
,,TGkackZEtpB8AocAXN3m16S1F1hPg3GpDA
,,@Mary081190
,,0xa7a1cEE50442354Fe67c4153ceBba459840f472B
,,0x11b8B798200D82051b84dcf33a0f4eD9e45AEbF7
,,0x1F6A2788BCaa647baC0c981c22e30C0ffd8Ac616
,,0x3b4A81E74975C3ceFa95F7E5930a29815729941B
,,0x36E3e3bf190bd6Fae6C0f44745eCbFE086e52847
,,0xe43A5D1cAe273F6A88e2fb6dfa0818fD58BA403e
,,Followed
,,@LimJingr
,,Followed
,,0x1D51B33899a394aFf34260Ee250b4D29f81524E9
,,hellisgalder
,,0x8E29dEEe929117e7d0F8686a93873d6088B158Eb
,,@hongbac83
,,@Chiemeladaniell
,,0xfC8105d0378a6A1931f3Aa20c5c820E25AF267Db
,,0xdeF17C8d9D961E849b9e85a99f49c752eF96C340
,,@ravirajgade3
,,0x7bF3a9758Ff2bC4bfB1D18ACBF00DC0c76db69Be
,,@Ayazbey48602195
,,0x763759F02b6755a1E174fB65CECd87F20B9ECdC4
,,0x98e5aCe78BfBC34cB0754cFCED0AA7550c6965f9
,,0xc155B1fD1B37f6D7e3CE778b092532f0Eb516C24
,,0x4BfF4726cC17a2b319471165754acCaafF1A5172
,,0xBB9d882928d703E5e6d78B93C37019987fcc08F5
,,0x6159698a8Fb9624097847d579e360E2e8aAD2Ec9
,,
,,0x1542C487BF9e2bDBcf474B4954C9e051AE19D429
,,
,,0x8DA30789fD22fE715417933680f95aF585bA826c
,,Followed!
,,0x38C132A659b38C2eBff8C33bCc3eeF680311e816
,,
,,0x259A299870aBdC532cC44D724d03Af06612dBeA8
,,@Niks45583166
,,@Adekunl44144611
,,0x86330a57c267145b88953Efd88764c5398479Be3
,,0x95966d44c96c6d30C77e40e9DF9463037f7aB354
,,0xaF46739374C2a772282c1b0574a19A6Ce0104ddb
,,0x4f45792E4b38397Cfe83E67B88614Dff18dE79aa
,,Followed
,,Followed
,,0x815B60Ce86711b3eEE0412E43F3810998Bb02dE8
,,0x6ea24F03dAc25D6081e3881f0Fd369A5eb4b3303
,,@ShafiqueAhmad
,,Followed!
,,0x5578fe8a4df36c0619133138003fd87d761c6873
,,Followed
,,0x7F229e50167b23863b8684adc2F0BE9DA467237D
,,Followed!
,,0x54f2700371C3c3C56B7dE26fE9baBfD90D526F84
,,0xC991f2fBb36EDDD75c62277FEde32Fef5aA40954
,,0x5929B404b43e49a2EBBD6afDe45294598d4fdD29
,,TYHpmnPWasSzBKLwKsd21y3gw4rwczVpe9
,,0x152CC79f0ea32F78d20d9e655430Fd0692A89292
,,0xeC939e986F56dfC1aA4F6865073fD9Cd226402eC
,,@pecepak
,,0x9e1543b9742C2028007b33d83a7e0139d7447b68
,,0xe6759aC8E08ece99B2a2573Ef8Fcc0c2CdDb2a2B
,,0xad4D35D52CF22F18a2E45F5bf2655642f711A6A4
,,0x94B389f58400fd646a7a4D2D65f81513f57f3eED
,,0xA10dCA6CaB25F266a44852149F4808aD3BEF98e4
,,Zaynsalem1
,,0x26e1bFb6938caCeE6B82b3b641D4A06599fEeB71
,,0x85A18586Df8666508D67106C6a207E1E8a9e30Cc
,,0x4037254A016Ef1682504B6b5a477e2Ab6b5782c8
,,
,,Followed
,,0xabc42b6a90c2a5962c1be78be7344a7d05848ee4
,,
,,0x1f48e14B0472bBB35E55BEAD8bA29f9A38067a29
,,0xe65A3Ded5034A99c4493ce0fAa98bBd837Ab6473
,,@Danang505
,,0x88E4dBabB795fc5645DdE4D1f0B5E18ad17c6f21
,,Followed
,,0x2e2741C7E8cd836BD81383dC98CaE470328E7f6d
,,Followed
,,yevhenkhoma
,,
,,Followed
,,Followed
,,@OlMac25
,,0xD7203A6f3502448A659db49495665f6bcc51b02e
,,Followed
,,0xFF89a0BA8bd21Fe8b48195C8842b95Cb023455C9
,,"""Followed"""
,,0x94C10F1FE2337d3015CF08ee030BeAD3e641DE6C
,,Non
,,Followed
,,0x2d6c18465402657cb8228fF1F8BdAEa0673e6f62
,,Followed
,,
,,
,,@ghi
,,Followed!
,,
,,0xCC2A4a916fDbAe55dBfAb0C007Ce346c644f07bD
,,0x93839092e7F1692DdFc5d968db4573a1947358C6
,,0x1bfb68410Dcd9917CB9F0B10B8558b5E27D51D08
,,Chisom10706312
,,0xEa49e0BC481527CEbC1FBD932a6532Ed6aB42098
,,
,,Oyordy_
,,0xCa25Cd86B77A85b0B06DfeAe704156e214852548
,,0xD1Bd56F60Dc6413112771976F6843599AF92b310
,,0xf3Cea90FB5EeBF4e3495a70D4eC3e9F060e2691B
,,0xF6Cf5a65E17d09c363E45609FA27D961bDBc49ed
,,0xE932E340537716d8ab91DfC482D986692Bb8f9A0
,,0xA59B9AB8e915842215Ea1dfDB401499338620a17
,,Followed
,,Followed!
,,0xe9B6f5BB5E77779963B78022A3eE1c23567BB140
,,Followd
,,@AbdullahiUtono3
,,0xF430397391d8C0C4DCA91417c9E9228AcA794222
,,0x5578851e8c3e7520485dc8cDd6B13049D078bc8e
,,0xf19369f2A398ea7BEae9cDDE761c5542703Dc6d9
,,0x6bdBcBDdd2dA1be637c7548457643035f811058e
,,0xFC0DEaE5338ea93Aa6399E0Fd28Ad2a86b84E69d
,,null
,,0x7f7D19F522aC2673a82322725b2fEe35ed0f0b82
,,@EdiCL9
,,0xC3AD21aab75D199b8A7c31ceB5045E0E2D61Dc4e
,,0x01eD071Ff0c0b1232CaE78407baFfAB206264c91
,,@namiheiangou
,,0x61b8231F959FF607b7b8BC9E276BD0D0b6974c80
,,0x12f14aaf5267eb8B29748Def3C455689B417f998
,,0xBEee5878eF153fF6AC798165539A37C96996fFB8
,,Followed
,,Followed
,,0xdDF2980f0abb0afdEDF5998cBEfF3CfE3F792834
,,0xa78721c8F3ddB6be3cDC584EbBD072056dfE6747
,,0x10f5Af6EF0aD2FB0B993570051959809Af831c32
,,@aslps
,,Followed
,,
,,@Tashmain
,,0x74eA929Eb81D8025654eab4933305F92fE91B14a
,,0x16db8ab73435a5AfBE8d046B7614EFB5269c9F5E
,,0x309C5C54dA961022ccD87dBc0FaeE910C4198cAb
,,Followed
,,@gcompartidas
,,0xe3082EF709Eb95E9cF8A370B548c98D50726D7E3
,,0x306FE03190c2bA2C7d1D87a13f16c5f4A3EceEd0
,,0xe4473E5abE68A0F552d137dFAAEc7b57DD5BfEf2
,,@dynaminer23
,,
,,0xB1B97Bc384284B1Cd1125F6555D4111dB0d882B8
,,0xB25e038FCdc4d5b16d8647412D01cF2Bd2B38DD0
,,0x9C628B41aE8a73C4c1a607d3793aD2854fc354d6
,,0x68044694fA2FC590b049818EFeeB39E64debf73D
,,Followed
,,0xBD399dB5c19bBBb028c021a627882d77E07a5dE5
,,Followed
,,Followed
,,
,,Followed
,,Followed
,,cryptocoil
,,@paschal08046499
,,0x0fd955d29d88a2b7258f8b364cdfe36c2996438a
,,@Raphael49729953
,,0x2aD24F89e7AE63379bFEC8c65b30B65CAcb32924
,,@crypto_M00D
,,@adityarahim97
,,@john20745467
,,@josh221989
,,0x91F636859823794500DA55187D7edd8e8ff936E7
,,@PrimeBoxtoBox
,,https://twitter.com/iYearnFinance/status/1312318551961694208?s=19
,,0xD926561f058BcF3CA4973Dd17C27829997788130
,,Follewed
,,0xcCc4881d8309009e7f328e7Dc0b43a86bBe923fA
,,@STintila
,,
,,@StSt777777
,,Han
,,0xab2B6c7786BE4F8FD06E69836f953f881FD4516B
,,0x41966dc4E08545B225694C72eE62Cf4F4611A940
,,@Digitaljames12
,,0x926DD74BE2687a568d57C0F4A63DE1CA0eBABd17
,,Followed
,,0xcF2A428239162be126F1C82dd9143f75340CdD27
,,0x85A18586Df8666508D67106C6a207E1E8a9e30Cc
,,0x4A74c30ff96B6ca939602bb68002DE0Fd60E2973
,,@Papa1980Perry
,,0xE0dCdeA34BEDEC115dad6CBb97fCB59fbaD37c3d
,,
,,Followed
,,0xF0a7Ba18ff5dE9D87796917f758f33D776C6CEFA
,,0x8b14DD22eC3F411C213ac90f3f2bF68187CF9aD5
,,Followed
,,0xC24c4aF97aEA6B491fEF6acd69c60a64D4C3eBD3
,,0x5c9402C3334a1a88E514032b1Fb968b92972B5a3
,,@iYearnFinance
,,0xB50FBed13E9c21feB1DBcfee8c69BADdb03eE105
,,Followed
,,@LazorcakOla
,,0x3f59829E8E2429E9656e6c59aa6D54ABb10002c2
,,0xE0F9087a20556520E108acb2c904bc72e9fA594c
,,@Adam79619189
,,0xF2C3E70C7d60e1e51583Df0112C3E6b3EF27c64d
,,
,,@saifalbahri
,,
,,0xAf61B0f9756163709A129F60c2192876365D13D5
,,@elthrone123
,,0xdd32b42938dfc0Cf99535A24F3A1860964878CAa
,,0xbC7183988764d01A2F8F419391bD548e0b7953F7
,,0x4aE1684c8eb80Cc1C56215eEFA2174D82403405E
,,0x485D853742B1155f37673AC2a1C7a90866AE0945
,,Followed!
,,0xEF56104150277C828F6e2be90fEaA26Cd9C0ff2B
,,0xbF57Aec2FfC9634c518aBe7fC43E10C6FA248B06
,,0xF5a67033f33f8f5Ba6cbf4Db212Fc8aA8C76EcE1
,,@Tinzky25
,,
,,0x248a6Df7948E15392FB27b536610A4BB91d87f43
,,Followed
,,0xc0164b1a4c717F83949837583a3bD9c71FF20c36
,,0xf3DB7897da5d6A0e78869D3c08d4706Fd8CcF880
,,0xeda880a609B8e02cBcEE84DF25826e25CA757D77
,,0x9921d43ae03c119851BA40caC7f6C3C8ea1C455c
,,Mountai06453508
,,0x865f50253f6C341a5639C0b209BFb86Eda9741D9
,,0x873933A4Dec821eEaB87090D084aD112b10A374b
,,0x95BCa52FddbC305CD48b54F5B73cFDD2eBF97811
,,0x81c0F0885a1371c1Ca4D5aB9e36262ba0b81E15e
,,@GEORGEKYRIAKOP8
,,
,,Followed
,,0xE53AdE7D9a62ADC6e5ec926272D508CE8729f056
,,0x07B9035A0c674b8801c07638E8d9cD8D4B70a34c
,,0xDB6F4d2eA6587594B3fe77D51a2d6263962181F0
,,followed
,,0xb2941ebA32b23D1c9B1c433d758F4C68a2e5F43B
,,Followed
,,0xD346303e1d8834A748B81ee2cDe94C91F558f5Bc
,,Fescrypto
,,Followed
,,0x7B5c9C38dd4c716E6096aEBccfB0A50b3c360f73
,,0x449a4D403087b37F30BFA95d1A9CC8512B1EBe94
,,@rcpchngr
,,"""Followed!"""
,,@njorogeelsie
,,0xDF642661f1Fa6f6747f60D4bbA2858F1560eD061
,,0x9465601d9a80397D19AA71500B6a10060fe96221
,,@MissFernieB
,,0x56B453b54A9913d5aF623598Ac79F9e437C89BAb
,,@haquan3881
,,0xabcb219897C84A7cf7A7D64875348Ad32d2D5210
,,0x2f76dd4c37fd2fAC8FC7bDaA931E2cAd512ee027
,,0x972978353E8054e4CfF24dd7348ea2B2ec768d55
,,JillyBean
,,"@,hougaardAllan"
,,0x81F45Dd6D171C295e6465cB068D60bff9Ec46710
,,0x8AEfebdC404732705Da2C330e9D973265865E21b
,,0x29686B7045A44D67d000833A4281Fb202b9a1b43
,,rxendy
,,
,,@ay_hord
,,"""Followed!"""
,,followed
,,Followed
,,Followed
,,0x68916eD920963F857A2B1cf73C221Ef495d05919
,,0x360cc28b20B4114B394398f1B671F4eD03B7Ad96
,,Pst_hoy
,,0xC0Bee741e0986fE56EB20c7283D549155E96514E
,,0xe38ed0c84bC5658D7DA4Eb4781f53f50f9FD0bFd
,,0xA4857028442c23eF3e37b4D7eacC9c1fA58b9872
,,
,,Nikolay Dimchev
,,
,,0x2DC6586E9555599C1dC38d0c395Bc02fdaC7fA0E
,,"""Followed"""
,,@MAKZ1118
,,
,,0x5635F75308e4863DA06bB454E0afA5f74bF28B5B
,,a_brands_ph
,,0xA3e51498579Db0f7bb1ec9E3093B2F44158E25a5
,,Followed!
,,Followed
,,@Cryptospaceboy1
,,Followed
,,0xb29D84A526d69a99C00A8eCF1F1280Fd88782eD5
,,Fomo@fomobeast
,,Followed
,,0x44BF76B24b8b73880Bd79Dd971827417A6D5E5b4
,,@STEPHEN00525341
,,0x5a47aF27C85F8107A1201878D70038F3C9ACF1Cc
,,0x47F6636A7A14E3f8565Fd73fAEaa7763712F8B06
,,
,,@Russel50470693
,,Follow
,,0x137a51e188057f09a289D17AE4ba4aC6b586C139
,,Walletforums
,,0xC0CD23979A94C7db72059960EF7B11F0B31aAAF5
,,0xd7b0b1B99FD0fdeD2e78dD67dc98d18cDDfc48FD
,,https://www.twitter.com/eroticarlo
,,0x0832e2d1f6b6598f6f782eb8b4759104a6099b7a
,,0xd5590c86C7Ad29818602f5Da17c2aEEb2Bf31627
,,0xeBf6621bC4C82b1437a03D3E1Ca5354bECE629c9
,,Followed
,,0xa325385046BF2BA597cb923FE149e76A3F27A69b
,,@onlineworker13
,,0x80C22f00D14bAd9bB4bda9627E7946eEAC95Db59
,,Followed
,,0x655f81A60c9ee1978f6962bfa670fb31E017692B
,,
,,@CanterosRyan
,,
,,@jigsaw_33
,,0x171241c91f4e5f82b468e2160ea82573Fbf41B21
,,@rpmaurya0906
,,0x0cdfe44eb5615926e0ae6039566c785a87978e5c
,,
,,Followed
,,0x2bebd89c75998b966e6815b207ad7712e1beb95a
,,@johnchidi24
,,@d_garridog
,,0x721E7F7402EaEf8540E5C62Df8DA2E5A8a0B6e7A
,,0x859f037b6bfF9D053a61Dbb8cd0d8f48D7007D96
,,0x637De229e3f015f13A4A8C06349A0a265fBC1e4a
,,0x3656bB2de59633b77b77Ad8140A1633930618100
,,0xDD57d87208EDeFe412994324E4720C86e4405af8
,,0x2badd3eaba62c746e37e5fbb452b43d3c44054e7
,,0x734e710168A05391F326060a5282fB80ab8e93a6
,,0x6675bc95eA1BFEbb31FbCe2De9467141e48f7a7b
,,0xe8B2cCFDfA7056006a7c320321F71aB0203f2544
,,powerplant999
,,Followed
,,
,,0xcdAD84B99F0240e08E65a8b633F9B74D39dc8cC3
,,0x642CFdf3CbDA647e9d76981Feada7d639368C009
,,
,,@Saidah69317078
,,Praise felix
,,0x4b02F0A925A8194A1C98E79BE5B1361Adff1C5d3
,,0x9d313e294070d51008299d17c15ce135f0581e1c
,,@louism85
,,@pecepak
,,0x85aE00b99Df8433f709D8bdBe5348498fa1B88FE
,,@Digitalplaymax
,,@RealJimmyHolman
,,Followed
,,Anonnicsa
,,@scienceboy007
,,@ockplus
,,Followed
,,@DeausAsber
,,@refolli
,,Followed
,,Followed
,,@zaheerq8
,,0x4F37d5974b887c72177f1d6784C5b157d16EB033
,,0x3c0Dbe6F389BBe1d19110578e70b502A4121AE2B
,,Dblak_emma
,,
,,Followed
,,
,,0x6054f1c7050ae02d31be48fa89f8d17572ae61ea
,,
,,Followed!
,,0x4568d5D6a58466e41a216642dad3bc611b8a42E2l0
,,0xad8f55ff264379185931d3fea7805c2cb7218bd8
,,
,,0x3e47F8A4E67133F30d0b7122a1a05A31470f5dE8
,,0xC39b2D618e44E9032Ed008dc0750A311827a7833
,,
,,0x5CCB4433bCB18468dbFdd7b7F4f43366534De0C8
,,0xF6dD42ae532EE92a68183Ff4Ebc1b0A820589Fb5
,,
,,0x3C52AfCFB7d926759F11D613dBe67b695C024A95
,,Followed!
,,Followed
,,0x175cDBFC9DcA2854F4637D8398e096B268D2Cc74
,,0xc361c5a6f3b6107e3b99defc9b75f6864d814f43
,,@ salah95737011
,,@dane_g82
,,0xAC43393F63A08FE8DD0B57937E7242FC3944BFC2
,,
,,@BitPoser
,,0x9C5919Dd33AFbC32c5C0395b49360376a80d5f22
,,@OMYTHV
,,Followed!
,,Followed
,,0x7e71eE150BA65AFE3E34C54f0f78eC8b971D95Bf
,,Followed
,,0xd48d37d1FE22b261A6033328D508d246C9b66F42
,,0x1936b42b692fE8390cc55CE7E76F5149fB5b3Aa3
,,0x84bA3E98B01E7b76643b9f676dd8d8d32B8878CB
,,Alexlee
,,@lucordelamor
,,Followed
,,..
,,
,,
,,@selman324324
,,Johnh339
,,0x0BFa343115977a820e51be0193C36E4094b3D68a
,,0x5635b84554ef1645aB313CBb92dCee02fD117F82
,,0x8Eb42Cf1f11FaCEC3B31F57A83497E7d49237546
,,enlighthouse
,,Followed
,,0x8Ab35d5773ce94E341Fd5715b751ce10b977e0f2
,,Followed
,,0x7862aB1144Abab83a0c4efE6c98B1126cc32D1fC
,,0x2A80bF5049502953FA4A3498075ef3C902652F74
,,Followed!
,,Gentleboss
,,@fishbulb77
,,0xB123Bf3e9e659F95c24514777668617E6F996B81
,,dariloff
,,0xd1E8A7F3c013CC2d147e4DC7e1140bC072BbdaAD
,,@UzomaObiefuna
,,Followed!
,,0x9F43383002cB82BB538437232Fd0963f1149D908
,,0x71160a056A3F2297d8533137A288D6633ABE392e
,,0x6810eCd9c1BbE91576e99D198C3c37b38d263176
,,0x3314303AB53D290e121168Eecc2D421213Dd75a5
,,0x7fC7A398aaD8b4B489304A865A460a3391b082D2
,,Followed!
,,0x364e975e8222a01C44C4A8d2Ce094Ccfe3ca9702
,,0x69A2D026DF4C7a926A0b908BB4344CFA5bdf5Ef9
,,
,,
,,@Okwudibe
,,0xEbeEFD2156204CDB484A549Dc3fC93643a5904b8
,,0xA9183ecF80748a5731592d0f41106d6486559331
,,0x3444E6724136679E29E7465A7d719355BF756837
,,@Lerindia
,,Followed!
,,Followed!
,,"""Followed"""
,,0xc6f7162B1eDBE20dbddF9E30566019b0B9D53583
,,@ryancadu777
,,0x63fc54477C1a9F61E5cA57d5E1c6116cf14d11D7
,,Followed
,,
,,0x75f6C2EdAdE8ECeC07De7171E31D2ebA73F7afB1
,,0x6b970A43a931D62471ef6754e0c2E23e99756Bc3
,,0x0E6DC7492C284bE0B296C09C762e4Edcc3F8DFE5
,,0xbef0273fE604058E0fe37d8ee586aB598FBCA480
,,optyrcevolution
,,@A_R_T_19
,,Followed
,,
,,"""Followed"""
,,0xD15c7d46852C32bFa11aC9c7ae04E857df6BA7aa
,,
,,0x357914372c4c8749FaC95BdCe7eB173e80522196
,,
,,0xf8CDaaa8C6F7c1F4d490415A84F579eFbfEdb587
,,0x97968941aB0247383e671eb8023c27E6Cf3E8F43
,,0xbeE3D68b4e2798e01Ee3f578F9Bb4eA2ccC5A954
,,0x70f4184fd0e0f2460509b78e191f0d7cffdf5ce5
,,@bloomingab
,,0xf588335f0051D94972d82B7bb1Fc526812D2cC7E
,,0xb3c5b0baac1cb8831d83926d2376399ef29504f3
,,0xF4Db114aD6f5cbB1679567a56D01BC6acB56E44E
,,dasomos
,,0x8A8222Cf9950Bdd57D5521ed5F2c128316842991
,,Crypto Hodler
,,@Willcyjitiy
,,0xa75B828aff549fC4Ff2392500D2a5034A08e2272
,,Followed
,,0xc5aA7d36D707E085d324c8493C4D01ed02c6406a
,,0x6f2c836dea696a12dcb96b91eb5bf48b38bbb92b
,,@DedeSuh007213
,,0x42814CFb08B3a1F9fEDD618D35E4e2a156b4488B
,,Followed!
,,Followed
,,@worldcurrenc
,,@frmehdi1
,,0xC186F9Dfc3EafE913aeC2230FA9d6B874e18370c
,,
,,0xCbf8AA39C3D08F93115E4fAfBA0A851Bb00818E7
,,0x10dB100C7e7fB85e28f35844b791D554D565051a
,,0xE2a8A29FB076CEF3A243b9a6456Da882E3AbDb57
,,0x9A90D34271EFd24ebBacDB8576E4F587aff1D818
,,@alfonsogomez
,,Followed
,,0x5d141cf72F6799a82cEdAdFa693257D8eA0D0d93
,,0x42065d99Ecd3611004fAE70617BaDF1d75c8DD33
,,@rj_kunz
,,
,,Penstroak00
,,@AirdropHunter86
,,0xe357234d4F7956b5573e1F214d4Ea6b4077a1472
,,0x8CA81dc4327b368F0C913CC29728EED9d779199d
,,0xc6b814F04067dbbADb1a4Ee40b124fDA34AeB9C0
,,Followed
,,Followed!
,,@thamitarik
,,0x0edcA0606DbC1a62552CFF9eC66e78c5dAC2A674
,,@AverG004
,,Followed
,,0x31EB3f51039af73a12E0967659a2c72aeB585767
,,Followed
,,Followed!
,,0x0Bf1381237D1A099800A2c8d3e6B5ac699110AB0
,,0x808226b4a530eD7268a754E5548999657aDE0297
,,0x9c9B0CB2EB9E0b01D7978a0F90E1A28653e10F03
,,
,,@m_ mosaddegh
,,bab rayshen
,,0xb6A45bA654b4A2d27a6667b49879fB398EE553A4
,,
,,0x3A8D8101F09e6cA4B5ac6b8BF9e4000cCcF6A685
,,0x6942011e1AEc4B3224499fdF8024cb8FD810BaA0
,,0xafb4622A68Db2E6Ac9b754C1723047c59B963706
,,@rusty1884
,,0x08cAe66a27c8C8875a80c3c99361E48996E67F29
,,Followed
,,Followed
,,0x91c99BbD2A1862518A71FabC66C27f06e98E0A64
,,
,,0x4B1F4956a071495c45Ac3749B434dc3be4554112
,,0xc280aeFBc4BA60b8c8625c448BFa676124B8F9c6
,,@allanvelikok
,,
,,
,,0x6F8AB2046b7a1BA8fC196A38792AcA94f79e0559
,,0x6ac25bd9111bacb05770b123f981b12058d49eaa
,,Followed
,,@AndreaDagCrypto
,,0x272f2312e6E362192B49FFf5C179679DF8A3eBBC
,,@Hum4nT0rch
,,0x0653BA2FC838bb305BB434c79a0dEA216cfD7018
,,Followed!
,,Zionlionn
,,0x9e2D7a8029a9f1c8C21B9A6ab925d9d1e29725e1
,,Cepi guntara
,,0x2d4eD47C9925FD26A052283f3dcD8dCF0b4F4Cb0
,,0x0522a39c30d83F18F3832caaAA2dB4F6595771ef
,,0xE62c0b336Fe74Ea04FD21143a7e030a2972bdf1c
,,Followed
,,0xf5dFfAeB1FeFfA2a3C0f1D58825Cfda412158D29
,,/yes
,,0x013Ca21c69690254f53B98b00e14CbDe1D158f47
,,Followed
,,0xACd943B0132063C888E0c398BE7c41b12945965d
,,0xfD7a65786f46f7c88305a94f7DA1042A835118c8
,,Followed!
,,Follow
,,@crystalraayy_
,,Suresok
,,mruczykij
,,@crystalraayy_
,,0xFE3aCf11d12C1A0189dcBC7769E1848F08C4D62E
,,Followed
,,Followed
,,@tozneg1
,,0x6d2C80315bB93807676E6121060E4505FeD53ECd
,,@1btctogo1
,,0xB017Fb4C2Df98258C34b400e7A19202301060fdb
,,
,,@williamswahyu1
,,0x9F5bd149F8af984B02F37f88E4B274Fb14784D3D
,,@ZovutDima
,,0xDDa38798beC37B0ae7f781a22372642c0A1e396C
,,@gabelwilliams
,,0x5765c54C53F24c89d0ad2f3C81EB71fA20e1f65a
,,0xd05D24EfE9B9bA97a2b03A017D2c034eB6f63d62
,,0x2ecbb98cb57fcde5f86a53e39213f58c33ccfd69
,,done
,,0xc26f1a0B50c96bb40069FaedEbE55B5627EAEdB1
,,0xBC39931b14064eD1cD4A717E150D7c6CB1942D91
,,Followed
,,0x80cF87181C4eD3739d3DB209A0a6AF8382d8E85a
,,0xF0D4F0Fa3Ce10236EafC07f0410F22bB7927B667
,,0x07Be4Ff927741ba07523D0Cdb70e8B4533c2614b
,,0x876d308484103eF39095ad61F770355B742d10f4
,,0x7493be39b110a85edF19bD2E1Ae966A986700EA4
,,0x899C033Be75F975f97B0868e1953B13a56e62D91
,,0x03e8E0be104b1F6a11D3103eBAFe3D585eC09b37
,,0x25F96fdDF2692416a68a5262CD84236DCabad86a
,,Followed
,,0xeda92CE5FA3BF5b84e2240e433836219d5a43c0d
,,@CarlosJ072880
,,snehilbuxy
,,manankpatni
,,
,,@Crypt0girlie
,,Followed
,,@Stefan751013544
,,Followed
,,0x7Eb59C73763d92dcf6550C22Bedd367d88289399
,,Lautwein
,,0x99cd8c47E6b936F917aD76BF101511CA28D2707e
,,0x6a496667Ba9e7dc41967F23d19CfF562a81DFb56
,,@tonet99036816
,,0xA70276B39e3C8af2E7aC07872428137683AcB1CD
,,0x1AC00261FfFa9710D08aB711E285f485A6e361FE
,,0x8af73CCA9D70B981e62EC6336fA8E579DfFb82DE
,,@mrheness
,,0x1dD90066adfEDBae6d9d9472B0500ce8C738C2AA
,,0x2Dfc45211Be3db76E20DddA9A02B90121002Ec6D
,,0x1ADEeceC46ea4e198c0A02Ea3BCec01F02EB8D9C
,,0x0D8b87dF7331897c567aeF888494B3EDFcEc748F
,,@jahbaw1
,,
,,
,,
,,0x2A07674a6a2e127aD59967D7c83dDf6a35a24787
,,0x92150e9CbeE7dd5c1D6801fb7d116b853eDA44c3
,,0x8E717eC933d595eBA902E503ca86A221d93720CA
,,
,,0x1F56cdC4639D990f0D5468BFF2F84C095b420e15
,,0x9537E7Cd42938bFb5deed7b744d5D22fD56c4e28
,,0xe60bD9F68aa3069C9b7Fc55Ad50e702D639CD121
,,0x78e06805e0e404673776e69ce31452e916ec9fb7
,,Followed
,,0x4718D3bf15de81DC9d47C910B589e4627e02351e
,,Followed
,,0xC71EAB1F8a032b5a2a39ACc0CBC94E7028C5d620
,,0xEa75c4D702E737D030387FA9d0d84e7A307E604d
,,@fuchka123
,,Followed
,,
,,0x4FEE1E77321788f4aF13490773ABA7ee13eC7cf7
,,Followed!
,,
,,0x4A44d98A6054e8f4Dc3dE3936443D74d5b9AD288
,,0x00b32Dec59EE9bf4B17Cc5459560050f324D026A
,,0xbd6775eB07ef0E129CA597B1BB73F5227de81ecC
,,@duniawi10
,,0xCc954C3DA384B16416AA1073f1a8dcBb28655CC2
,,0xC436accFB7d4A3c55541f25a4792cA71A9A80de1
,,0x1D8446dEe1067775a6f7e875a19c4DCebd44fb0e
,,
,,@melinoesmind
,,@EkechiChinagor1
,,0x635E609eeC89a99a219Da838ee0052DeCb1E34a6
,,
,,0xd1d1040B407113b579532AEB7F95e3edF503667f
,,0x9D86343d65f8d47ed418E344d3503A5Ea756e7a5
,,Followed
,,@Mjofialda1994
,,Followed
,,0x6e56b975a70282F844319190526eeC7BE657a1B4
,,
,,Followed
,,0x6dF298459617Ccd137065A18424eAC7e3Db922b5
,,0x4d32A9E890dAA9c1CFab0fCa5307F5bF899BcC14
,,0x5e05d0e802a8B3AbABE0263698318D9249a1C3cc
,,0x700df7faD87295a2b032DFa3a43CDFee19Abe73A
,,Followed!
,,
,,0x258875463927E335042B17238641034761a55E59
,,@HoegoeManan
,,
,,0x48fcb83FD4B0A38Fd9ba37b1b56C007f269A1c4A
,,@goaldigger28
,,0x52EA9F3e359a6b6f9daEf8a9d52De41216Fc2F40
,,@mefayi
,,0x405165033F4E53F6DDa3DAA99a50e8678810947c
,,Followed
,,Followed!
,,cuanoop
,,0xdED1102D54398e0754fDe767Baf5658f5f029591
,,focus
,,0xd41d0Cb12Da1C46006B94a0e9a99E83E3E27E9DF
,,0x792c68eFa4F64c3289D96020e5a2ad5A2d0fEcCa
,,0x18A1B3DFF420201Dd84D6c008f8ae491dE0c8d42
,,@Lfuad4
,,0x45c72e522b3Ca82cfaa99E6a9Ff4BB0FD31D21F4
,,
,,0x658807e45AC1F8B83B251Bea817abDABFaF3F7d9
,,Thefennectalk
,,0x37Ad4937973e23A24cFa598dDED3d0b39279f6Eb
,,0x1894d06873Cd776dB95B7Dc968cbD6Bc92D52Ce5
,,0xEfEFb5e11aFDfD40F4E50154fd982Fc73e3113d4
,,0x478A4019F3bE432Da97791BbEa881DBeA9C86D1E
,,0x36551E3755c1475edCb9eD13ff35FDC5B795A8C0
,,
,,0x8a7dfCf88b89979Ac39E72d09929df1428fae7DC
,,followed
,,@Tnuz9
,,Followed!
,,Followed!
,,0xE494187F865086621B0D83288f65a86D7c56a641
,,0x76E721Ac7b2a372f843a1Ea3418A359C9736bAe1
,,0x172BfF7FcBA573422767E6388e66Bb7D70Fb8372
,,0x21D7a20eB341cb0aE5C7f43b80040652F4dF644D
,,@occmdo
,,0x00F33c3BcE1b479bC7ffACc986BADCEd8B2D7CAd
,,Followed
,,0x3076554E49b75201f08d92c2b8c6aFf3F746d8d2
,,@QieranM
,,0x26E7c165F2a0B6d7F51FEE34E2982e76cE9D500E
,,Followed
,,0x93aE7F738095DA12C9A2e610Dc9F3cAc82E700D6
,,Followed
,,0x81BB785aFd2b4a061fAFA9ec64587b8F1078A9Da
,,0x2F92e8F9C532387596e149822fFa0a7628c1fdCb
,,0xf7E3C6dD27DE73ED859354d8EB90923719FC700b
,,@ArañezJoven
,,0x688c7Fa4921C889508111610d484E7e51F8c7DC3
,,0x8A0fF4Cc94BEED955dc757e77D7f2B38B53C5Ff2
,,@sheilamarie1286
,,@jokebuza
,,0xFA2F77a3d4c432d97f018f60EE425692016CE0Af
,,
,,Followed
,,0xc677f6F0fcf9bdF31B8F1333994BCD9BBe532cfF
,,0xd9f5958A78E18b71E19e229046A43f26E8e76D2C
,,0xaA889011EF5E35c7F3a764B56044cBdC3a4C87F3
,,xpub6DJRoZvUNmqcCkPsAuKYEr1kbJAiPtTMmjpM3mWf9uXK1CX7TddJVqNhxrvLSn9whfhYMGKz1Wsxr83TMkYxeThCMaaDswkdeDfXYyLWKdB
,,Followed
,,Markcario_abc143@yahoo.com
,,Followed
,,0xC4c280A799bD72d87BB030EA24B343F5171E2edA
,,Followed!
,,@stedas
,,Followed
,,Followed
,,0x987d25B8883cAFb510529e8ea4f94AB631E79b08
,,0xF8474EF87e276774eF72714FD9b6E973b4cd4A15
,,Followed!
,,0x6Eaa5E1792097C67030F2C1627523BdB5c7B9C34
,,luphibao1995
,,Followed
,,0x88C4f68393b29961B3Ec35811e03cDCbc02DABEC
,,Michello1986
,,Followed
,,0xD9D5584C5A20D67Ac54652472874E42f0a3bAd9a
,,0x5eDffBF93e21dDd7Bb8e6FEd043E76d2F9D642a6
,,0x10C784F8Bc15090903117c18E2ace084ff6B7595
,,0xb26FE87A9c64Cd021C726B5696DE2130f629a3fB
,,0xd130e18CcF2198F46757731E38be16f9D2F57d52
,,Followed
,,
,,0x634f45548c53067fc54554255f97F84b496A84B3
,,0x41fb0c2BcB7Fe861bc58ab480ad34616D0426474
,,0x8C27f277b7B938F4126e1b5e8a52995a09bF8AD2
,,Followed
,,Followed
,,0xE3f10b672Dbd2f70df4E0b3365264D3022c66eb1
,,0x6810C174E8FBf339A34adA4C78A4dF7D47C4afd2
,,Followed
,,0x81a2efc434335C32f42f428E78698Be3b87FdF41
,,@dainsgames
,,0x40553c970f10011c09B54f155E49DbABa09203B9
,,0xC57D60617da447C4B91Ef8Be6140EF0d977Ee618
,,0x4037254A016Ef1682504B6b5a477e2Ab6b5782c8
,,0xfdF51F1385DA008Cc072C5107b682ACef4a96dFc
,,0x556bb6E2224c09B4552aDf7548F7E2C23d31EAa7
,,@troffa89
,,0x672e5516c03c26bc4dce70A0e80b9347540040b6
,,0xE0d006e5b885F02F758E4A6955d8e02787A363af
,,0x5e3f4fa7aae06d463ef8fb6070c5e7d3ceb52b58
,,Followed!
,,0x032590ea55c793046d20FA914DF4A7c2a1B75018
,,0x6be9cFA2C7b64cAaa5f1B0Fb0FD89B463a49C3D5
,,@NilsXBT
,,0xE1b6E59d095F084B2718549e9d19b227D60Ce5c7
,,0xAa2D21B9554f9e112C2ea1998cb4FEe09A5eD49d
,,0x1b00c11670D76A8477e66c9998e09E72e006Ea90
,,0x93529a7B6A145583aeAea1F92Ee4fAA5452b63D4
,,0x980242bB16c21ED601afcb01577178650e2D5bec
,,0xc7F277ceA122A3e60054d17777639343A9019AA0
,,0x0c38E025870A4A2935c05Ce0f318F66501824151
,,Followed
,,0x3Db30c630F97F3439dE0FBEdDe29caC81eDC3A6A
,,0x48589b0B583e5dEC7F7db275411ebbD5A1Baf344
,,Followed!
,,0x0Db79789C778a685D2fA91dFbCE97920131d605e
,,0xDF4911dCDD7531aDBe4D9E7b0f22be12916125A4
,,0x7E46E91E34e09C14E2c31683aDFfc694C7aeeafD
,,0x12e22c665cc6f9a005558648a384f0f9006e4c69
,,
,,0x120781637314cb4a522c072Fe83F682B88809da6
,,0xD7ccD6d9AdD5774A671d55abeE85e5daC0bfa20d
,,0x5De8aaf59Ec8E2D4646c226B4185B81377737e2E
,,
,,
,,
,,
